<svg width="1229" height="1222" viewBox="0 0 1229 1222" fill="none" xmlns="http://www.w3.org/2000/svg">
<path d="M608.915 1221.84C603.678 1221.84 598.247 1221.64 593.01 1221.26C515.81 1215.63 438.417 1172.18 380.614 1101.77C332.898 1043.97 298.178 969.873 274.125 875.411C267.724 850.001 262.099 823.427 256.474 797.629C237.077 706.658 217.099 612.389 156.58 542.561C140.093 523.552 120.696 506.482 102.075 490.189C73.368 464.973 43.6908 438.981 24.294 405.425C1.79361 366.825 -4.99528 318.915 4.89711 270.811C14.5955 224.258 38.6476 182.167 72.5921 152.102C136.02 96.239 232.81 75.2904 331.346 96.239C342.79 98.5666 354.428 101.67 365.485 104.58C402.727 114.084 441.326 123.977 478.18 115.83C511.155 108.459 539.28 87.5104 566.242 67.1437C579.044 57.4453 592.428 47.3589 606.2 38.8243C650.23 11.6687 703.378 -1.7151 759.823 0.224582C814.522 2.16427 868.251 18.2637 915.385 46.5831C1004.8 100.312 1073.08 196.327 1102.76 310.186C1111.49 343.937 1116.92 379.045 1122.35 412.796C1127.59 446.158 1133.02 480.685 1141.55 514.047C1156.1 569.91 1186.94 644.394 1251.92 681.83C1259.68 686.291 1268.02 690.171 1276.17 694.05C1294.01 702.585 1312.63 711.313 1326.4 726.443C1347.94 749.719 1355.5 787.543 1345.41 822.457C1337.46 850.195 1319.81 876.962 1291.3 904.506C1254.83 939.614 1209.83 967.546 1161.34 985.391C1112.65 1003.24 1060.09 1010.99 1009.46 1007.7C998.21 1006.92 986.96 1005.76 976.098 1004.59C956.313 1002.46 935.946 1000.33 915.773 1001.1C880.083 1002.46 850.6 1014.49 832.949 1034.66C820.535 1048.82 813.552 1067.25 806.763 1085.09C803.659 1093.43 800.362 1101.97 796.483 1110.11C765.06 1177.42 689.412 1221.84 608.915 1221.84ZM256.668 92.1657C186.452 92.1657 121.86 114.084 75.3077 155.011C4.12121 217.663 -16.8274 326.868 27.7854 403.291C46.9883 436.266 76.4715 462.258 104.791 487.086C123.606 503.573 143.003 520.642 159.684 539.845C220.784 610.45 240.957 705.106 260.354 796.659C265.785 822.263 271.41 848.837 277.811 874.247C301.669 968.128 336.195 1041.64 383.524 1099.06C440.744 1168.5 517.168 1211.56 593.204 1216.99C598.441 1217.38 603.678 1217.57 608.915 1217.57C688.054 1217.57 762.15 1174.12 792.797 1107.98C796.483 1100.03 799.78 1091.49 802.884 1083.15C809.866 1064.92 816.849 1046.3 829.845 1031.56C848.272 1010.41 878.531 997.999 915.385 996.641C935.752 995.865 956.313 997.999 976.098 1000.13C986.96 1001.3 998.21 1002.46 1009.46 1003.24C1111.1 1009.64 1215.45 971.425 1288.58 901.208C1316.51 874.247 1333.97 847.867 1341.73 820.906C1351.23 787.155 1344.25 750.883 1323.5 728.576C1310.11 714.223 1291.88 705.494 1274.42 697.154C1266.27 693.274 1257.93 689.201 1249.98 684.74C1183.84 646.722 1152.41 571.268 1137.87 514.629C1129.14 481.267 1123.9 446.546 1118.66 412.99C1113.43 379.239 1108 344.325 1099.27 310.768C1069.78 198.072 1002.28 102.834 913.64 49.6866C817.237 -8.31003 694.649 -11.4135 608.527 41.9278C594.949 50.2685 581.76 60.3548 568.958 69.8593C541.608 90.42 513.289 111.756 479.344 119.321C441.52 127.662 402.533 117.77 364.903 108.071C353.652 105.162 342.208 102.252 330.764 99.9244C305.742 94.8812 280.914 92.1657 256.668 92.1657Z" fill="#B9B9B9"/>
<path d="M600.379 1196.04C594.754 1196.04 588.935 1195.85 583.31 1195.46C507.857 1189.44 432.403 1146.97 376.346 1078.88C329.793 1022.44 296.043 950.088 273.154 857.953C267.141 833.512 261.71 808.297 256.473 783.857C237.658 695.213 218.261 603.66 160.847 534.413C145.523 515.986 127.872 499.305 110.803 483.205C84.4231 458.377 56.8796 432.58 38.8405 400.187C-3.83257 323.957 17.6979 216.499 87.5266 155.399C149.403 101.475 243.671 80.9146 339.686 100.893C350.742 103.221 362.186 105.937 373.242 108.652C409.514 117.575 447.144 126.885 482.834 118.351C515.033 110.786 542.771 90.4191 569.538 70.6343C582.922 60.7419 596.888 50.6555 611.242 42.1209C654.885 16.1291 707.256 3.52119 762.343 6.04278C815.879 8.3704 868.444 24.4698 914.414 52.5952C1001.7 105.937 1068.43 200.593 1097.33 312.319C1105.67 345.1 1110.9 379.044 1116.14 411.825C1121.57 446.351 1127.2 482.235 1136.31 516.568C1150.86 570.491 1181.51 643.035 1245.52 682.023C1252.11 685.902 1258.71 689.588 1265.3 693.273C1284.51 703.942 1302.74 713.834 1316.12 730.127C1335.52 753.791 1340.37 789.676 1329.12 823.62C1320.2 850.194 1302.74 875.216 1273.84 902.177C1204.59 967.157 1110.9 1003.62 1014.7 1003.62C1009.27 1003.62 1003.64 1003.43 998.209 1003.24C984.049 1002.65 969.696 1001.1 955.73 999.744C937.691 997.998 919.07 996.058 901.225 996.058C875.039 996.058 839.543 1000.52 818.012 1023.02C805.598 1035.82 798.809 1052.89 792.214 1069.38C789.305 1076.75 786.201 1084.51 782.516 1091.88C765.835 1126.21 737.321 1154.14 700.467 1172.96C669.626 1187.89 634.906 1196.04 600.379 1196.04ZM268.111 97.014C199.253 97.014 135.825 118.351 90.0482 158.114C21.3833 218.05 0.240728 323.375 42.1379 398.053C59.983 429.864 85.9748 454.304 113.324 480.102C130.588 496.201 148.239 513.077 163.756 531.697C221.753 601.526 241.344 693.661 260.159 782.693C265.396 807.133 270.633 832.349 276.84 856.789C299.534 948.342 333.091 1020.11 379.255 1076.36C434.73 1143.67 509.214 1185.57 583.698 1191.58C665.941 1198.17 746.244 1156.28 778.636 1089.74C782.128 1082.57 785.231 1075 788.141 1067.63C794.93 1050.76 801.913 1033.3 814.715 1019.92C837.215 996.446 873.875 991.791 900.643 991.791C918.876 991.791 937.497 993.731 955.536 995.476C969.502 996.834 983.855 998.386 997.821 998.968C1098.88 1003.43 1198.19 966.963 1270.73 898.88C1299.25 872.306 1316.51 847.672 1325.05 821.874C1335.91 789.094 1331.25 754.567 1312.83 731.873C1300.02 716.161 1282.18 706.269 1263.17 695.989C1256.58 692.303 1249.79 688.618 1243.19 684.739C1178.02 645.169 1146.98 571.655 1132.24 517.15C1122.93 482.623 1117.31 446.739 1112.07 412.019C1107.03 379.238 1101.79 345.488 1093.45 312.901C1064.74 201.951 998.791 108.264 912.281 55.3108C817.236 -2.6858 699.885 -6.75914 612.987 45.0305L612.018 43.4787L612.987 45.0305C598.828 53.5651 585.056 63.6514 571.672 73.3499C544.517 93.3286 516.585 113.889 483.61 121.648C446.95 130.377 408.932 121.066 372.272 111.95C361.41 109.234 349.966 106.518 338.91 104.191C315.052 99.3416 291.194 97.014 268.111 97.014Z" fill="#B9B9B9"/>
<path d="M593.008 1170.24C586.607 1170.24 580.013 1170.05 573.612 1169.47C499.71 1163.07 426.389 1121.56 372.078 1055.61C326.69 1000.33 294.103 929.916 272.184 839.915C266.559 816.638 261.322 792.78 256.473 769.504C238.24 683.188 219.231 593.963 164.92 525.492C150.76 507.647 134.855 491.353 119.337 475.836C93.9274 449.844 69.8753 425.404 53 394.175C33.2152 357.321 27.7841 312.708 37.4825 268.289C46.987 224.84 69.8752 185.659 102.074 157.921C162.01 106.132 253.951 86.1529 347.638 104.58C358.307 106.714 368.975 109.235 379.449 111.757C415.139 120.291 451.993 129.02 486.908 119.903C518.137 111.951 545.486 92.3599 572.06 73.351C586.219 63.2647 600.767 52.7904 615.703 44.2557C702.989 -5.78814 819.564 -0.55099 912.862 57.2516C998.403 110.399 1063.38 203.698 1091.31 313.29C1099.46 345.295 1104.5 378.464 1109.55 410.468C1114.98 445.965 1120.8 482.819 1130.5 517.927C1151.06 591.441 1189.27 649.438 1238.54 681.054C1242.8 683.77 1247.26 686.486 1251.53 689.201C1272.29 702.003 1291.88 714.223 1305.07 732.844C1321.94 756.508 1324.46 791.423 1311.86 823.815C1301.96 849.031 1284.51 872.307 1255.22 899.075C1218.75 932.438 1175.5 959.205 1130.3 976.275C1082.2 994.508 1033.51 1001.88 985.601 998.193C974.932 997.417 963.876 996.447 953.014 995.477C930.514 993.538 907.431 991.404 885.125 990.434C845.943 988.689 817.818 995.477 801.525 1010.61C789.305 1022.05 782.904 1036.99 776.115 1052.89C773.399 1059.49 770.49 1066.28 766.998 1072.87C736.739 1132.61 668.074 1170.24 593.008 1170.24ZM279.749 101.864C211.86 101.864 149.402 122.425 104.79 161.025C38.6464 218.052 17.5037 319.885 56.4914 392.623C72.9787 423.27 96.8369 447.71 122.053 473.314C137.57 489.026 153.476 505.319 167.829 523.358C222.722 592.411 241.731 682.218 259.964 768.922C264.814 792.198 270.051 816.057 275.676 839.333C297.4 928.558 329.793 998.581 374.988 1053.28C428.523 1118.45 501.067 1159.38 573.999 1165.78C655.078 1172.76 731.502 1134.75 764.477 1071.13C767.774 1064.72 770.684 1057.94 773.399 1051.53C779.994 1036.02 786.783 1019.92 799.585 1008.09C816.654 992.18 845.749 985.003 885.901 986.943C908.207 987.913 931.484 990.046 953.79 991.986C964.458 992.956 975.514 993.926 986.183 994.702C1079.48 1002.07 1176.66 966.382 1252.89 896.553C1281.79 870.174 1298.86 847.479 1308.56 822.651C1320.78 791.423 1318.26 757.866 1302.16 735.172C1289.55 717.327 1270.15 705.3 1249.79 692.693C1245.52 689.977 1241.06 687.261 1236.79 684.546C1186.94 652.541 1147.95 593.769 1127.2 519.479C1117.31 484.176 1111.68 447.322 1106.06 411.632C1101.01 379.627 1095.97 346.653 1087.82 314.842C1060.28 206.025 995.881 113.503 911.117 60.937C819.176 3.52235 703.958 -1.52083 617.836 47.7472C603.095 56.2818 588.547 66.5621 574.581 76.6485C547.814 95.8514 520.076 115.636 488.265 123.783C452.381 132.899 414.945 124.171 379.061 115.636C368.587 113.115 357.918 110.593 347.444 108.653C324.556 103.998 301.862 101.864 279.749 101.864Z" fill="#B9B9B9"/>
<path d="M584.862 1144.45C577.879 1144.45 570.896 1144.06 563.913 1143.48C491.757 1136.69 420.183 1096.34 367.811 1032.53C323.974 978.99 292.357 910.325 271.409 822.263C266.366 800.927 261.71 778.814 257.055 757.478C239.21 672.908 220.783 585.234 169.187 517.151C156.386 500.082 142.226 484.564 128.648 469.435C105.178 443.443 83.2594 419.003 67.7419 388.744C49.5089 352.86 44.6597 309.799 54.1641 267.319C63.4746 225.422 85.975 187.792 117.204 161.219C175.394 111.563 264.814 92.1659 356.367 109.235C366.453 111.175 376.928 113.502 386.82 115.83C421.54 123.783 457.619 131.929 491.757 122.619C521.822 114.278 548.978 95.4634 574.97 77.2303C589.711 66.95 605.035 56.2817 620.746 47.7471L621.522 49.2989L620.746 47.7471C707.45 0.0308685 821.892 6.04389 912.281 63.0706C995.881 115.83 1059.31 207.771 1086.08 315.424C1093.84 346.653 1098.88 378.851 1103.73 410.08C1109.35 446.546 1115.17 484.37 1125.65 520.448C1146.01 591.247 1184.03 648.468 1232.52 681.248L1233.88 682.218C1259.48 699.481 1281.4 714.417 1294.79 736.529C1309.33 760.388 1309.53 793.556 1295.37 824.979C1281.79 855.044 1257.35 879.096 1237.57 896.747C1166.57 959.787 1080.65 994.701 998.403 994.701C990.256 994.701 982.304 994.313 974.351 993.732C958.057 992.374 940.988 991.016 924.695 989.658C906.85 988.301 888.229 986.749 870.772 985.197C829.65 981.706 802.107 985.973 786.589 998.775C774.369 1008.67 768.162 1022.44 761.567 1036.79C758.852 1042.61 756.33 1048.62 753.033 1054.25C722.58 1109.72 656.63 1144.45 584.862 1144.45ZM291.388 106.52C224.663 106.52 163.174 126.498 119.531 163.74C54.94 218.827 33.9914 314.842 70.8454 386.998C85.975 416.869 108.087 441.115 131.17 466.913C144.747 482.043 158.907 497.56 171.903 514.823C223.887 583.682 242.508 671.55 260.353 756.508C264.814 777.845 269.469 799.957 274.512 821.294C295.461 908.773 326.69 977.05 370.333 1030.2C422.122 1093.24 492.727 1133.2 563.913 1139.98C642.277 1147.35 716.955 1112.05 749.735 1052.31C752.839 1046.69 755.554 1040.87 758.076 1035.05C764.477 1020.89 771.072 1006.15 784.068 995.671C800.361 982.481 828.68 977.826 870.772 981.318C888.229 982.869 906.85 984.227 924.695 985.779C941.182 987.137 958.057 988.494 974.351 989.852C1062.8 997.417 1157.85 962.309 1235.04 893.838C1254.64 876.575 1278.69 852.716 1291.88 823.233C1305.45 792.974 1305.26 761.163 1291.49 738.081C1278.49 716.551 1256.77 701.809 1231.55 684.934L1230.2 683.964C1181.12 650.795 1142.52 592.993 1121.96 521.224C1111.49 485.146 1105.67 447.128 1100.04 410.468C1095.19 379.239 1090.15 347.041 1082.59 316.2C1055.82 209.517 993.166 118.352 910.341 65.9802C820.922 9.72929 708.032 3.5223 622.686 50.4627C607.168 58.9973 592.039 69.6656 577.297 79.7519C550.918 98.1789 523.568 117.188 492.921 125.528C457.813 135.227 421.347 126.886 386.238 118.934C376.346 116.606 365.871 114.278 355.785 112.339C334.061 108.459 312.53 106.52 291.388 106.52Z" fill="#B9B9B9"/>
<path d="M577.105 1118.84C569.54 1118.84 561.781 1118.45 554.216 1117.68C483.612 1110.5 414.171 1071.12 363.545 1009.44C320.872 957.459 290.419 890.346 270.44 804.612C265.785 784.827 261.518 764.46 257.445 744.675C239.987 661.851 222.142 576.311 173.456 508.616C162.012 492.71 150.18 478.162 138.542 464.003C117.011 437.817 96.6446 412.989 82.291 383.312C47.5706 311.544 69.1011 217.275 132.141 164.127C188.586 116.605 275.678 97.5962 364.709 113.502C374.408 115.247 384.3 117.381 393.998 119.515C427.943 126.885 463.245 134.45 496.414 124.752C525.509 116.217 552.083 98.1781 577.687 80.721C593.204 70.0527 609.303 59.1904 625.791 50.4619C711.525 5.26719 823.445 12.444 911.119 68.6949C992.779 121.066 1054.46 211.65 1080.45 317.363C1088.02 347.816 1092.87 379.239 1097.52 409.692C1103.34 447.321 1109.35 486.115 1120.22 522.775C1140.58 591.052 1178.02 647.303 1225.93 681.248C1252.7 700.256 1272.87 717.52 1284.31 740.02C1296.34 763.878 1294.21 795.883 1278.88 825.754C1264.53 853.492 1241.06 875.798 1219.92 894.031C1148.54 955.713 1064.55 989.851 986.378 990.045C978.426 990.045 970.667 989.657 962.908 989.076C949.718 987.912 936.14 986.942 922.951 985.972C900.644 984.42 877.562 982.675 856.031 979.959C826.548 976.274 790.276 973.752 771.461 986.748C759.241 995.089 753.228 1007.5 746.827 1020.5C744.306 1025.54 741.784 1030.78 738.874 1035.63C722.193 1063.95 695.619 1086.84 662.257 1101.38C636.071 1112.83 606.976 1118.84 577.105 1118.84ZM303.221 111.368C237.66 111.368 177.142 130.765 134.468 166.649C72.5925 218.827 51.4499 311.156 85.5884 381.76C99.7481 411.049 119.921 435.683 141.257 461.869C152.896 476.029 164.922 490.77 176.366 506.676C225.44 574.953 243.479 660.881 260.936 744.093C265.009 763.684 269.277 784.051 273.932 803.836C293.911 889.182 324.17 955.713 366.455 1007.31C416.499 1068.21 485.164 1107.2 554.798 1114.19C631.416 1121.94 702.602 1090.33 735.965 1033.69C738.874 1028.84 741.202 1023.8 743.724 1018.75C749.931 1005.95 756.526 992.567 769.327 983.644C789.112 970.067 824.415 972.2 856.419 976.274C877.95 978.989 901.032 980.541 923.339 982.287C936.528 983.257 950.3 984.226 963.296 985.39C1047.09 992.955 1139.81 958.623 1217.78 891.315C1238.73 873.276 1262.01 851.164 1275.97 824.008C1290.91 795.107 1293.04 764.072 1281.4 741.378C1270.35 719.459 1250.56 702.584 1224.18 683.769C1175.69 649.437 1137.87 592.604 1117.31 523.551C1106.25 486.697 1100.24 447.709 1094.42 410.079C1089.76 379.82 1084.91 348.398 1077.54 318.138C1051.75 213.395 990.646 123.588 909.567 71.6044C822.669 15.9355 712.107 8.9526 627.536 53.3714C611.243 61.906 595.338 72.7682 579.82 83.4365C553.828 101.088 527.061 119.321 497.578 127.855C463.439 137.942 427.749 130.183 393.417 122.618C383.912 120.484 374.02 118.351 364.321 116.605C343.567 113.114 323.2 111.368 303.221 111.368Z" fill="#B9B9B9"/>
<path d="M569.345 1093.04C561.198 1093.04 552.858 1092.65 544.517 1091.68C475.658 1084.12 408.157 1045.71 359.277 986.36C317.768 935.734 288.478 870.561 269.47 786.767C265.396 768.727 261.517 750.3 257.831 732.455C240.956 651.376 223.305 567.388 177.528 499.887C168.024 485.921 158.52 473.119 149.403 460.511C129.23 433.162 110.221 407.364 96.8376 377.493C81.514 343.354 78.0226 303.397 87.3331 264.797C96.4496 226.003 117.786 191.283 147.075 166.843C202.744 120.872 284.987 102.833 373.049 117.575C382.359 119.127 391.864 121.066 400.98 123.006C434.149 129.795 468.481 136.972 501.068 126.692C528.999 117.963 554.991 100.7 580.013 84.0185C596.501 73.1562 613.57 61.9061 630.833 53.1775C715.791 10.5044 825.383 18.6511 910.148 74.1261C989.869 126.11 1050 215.335 1075.02 318.914C1082.2 348.592 1086.85 379.239 1091.51 408.916C1097.33 447.322 1103.53 487.279 1114.98 524.715C1135.15 590.276 1172.39 645.751 1219.33 680.86C1247.65 702.002 1264.92 721.787 1273.64 743.318C1283.34 767.176 1279.08 797.629 1262.01 826.53C1247.07 851.552 1224.38 872.501 1201.88 891.51C1158.62 927.782 1074.44 985.39 974.933 985.39C967.174 985.39 959.222 985.002 951.269 984.226C938.273 983.063 924.695 982.093 911.699 981.317C888.035 979.765 863.595 978.213 841.095 974.528C807.732 969.097 773.594 964.636 755.943 974.722C743.917 981.511 738.098 992.567 731.891 1004.21C729.563 1008.47 727.235 1012.93 724.52 1017.01C693.873 1064.53 634.712 1093.04 569.345 1093.04ZM313.5 115.829C249.297 115.829 191.3 134.45 149.015 169.559C89.8547 218.633 68.7121 307.47 99.7471 376.329C113.131 405.812 131.946 431.61 151.925 458.766C161.235 471.374 170.74 484.176 180.244 498.141C226.409 566.03 244.06 650.407 260.935 731.873C264.62 749.719 268.5 768.146 272.573 786.185C291.582 869.397 320.677 934.183 361.799 984.42C410.097 1043.19 476.628 1081.21 544.711 1088.58C618.419 1096.53 687.666 1067.83 721.222 1015.26C723.744 1011.19 726.072 1006.92 728.399 1002.65C734.606 991.015 740.813 979.183 753.809 972.006C772.43 961.532 807.15 965.993 841.095 971.424C863.595 975.11 887.841 976.662 911.505 978.213C924.695 978.989 938.273 979.959 951.269 981.123C1059.7 991.209 1153.38 927.782 1199.55 889.182C1221.86 870.561 1244.36 849.806 1259.1 825.172C1275.78 797.047 1279.85 767.952 1270.54 744.869C1262.01 723.921 1245.13 704.524 1217.39 683.769C1169.68 648.273 1132.24 592.216 1111.68 526.073C1100.04 488.443 1093.84 448.485 1088.02 409.886C1083.56 380.208 1078.71 349.755 1071.72 320.272C1046.9 217.469 987.153 129.019 908.208 77.4235C824.414 22.1425 716.179 14.1898 632.191 56.281L631.415 54.7292L632.191 56.281C615.121 64.8156 598.052 76.0658 581.759 86.928C556.349 103.803 530.163 121.066 501.844 129.989C468.481 140.463 433.761 133.286 400.204 126.304C391.088 124.364 381.583 122.424 372.467 120.872C352.488 117.575 332.703 115.829 313.5 115.829Z" fill="#B9B9B9"/>
<path d="M562.168 1067.44C553.246 1067.44 544.129 1066.86 535.013 1065.89C467.705 1057.93 402.338 1020.69 355.398 963.278C315.246 914.204 286.927 850.582 268.888 769.115C265.396 753.21 261.905 736.916 258.801 721.205C242.314 641.29 225.051 558.853 182.184 491.352C175.977 481.654 169.964 472.343 164.145 463.421C143.196 431.61 125.157 404.067 111.773 372.062C82.8719 302.621 104.208 217.663 162.399 169.947C216.128 125.916 296.237 108.458 381.971 121.842C390.894 123.2 399.816 124.946 408.545 126.692C440.938 132.899 474.494 139.493 506.111 129.019C532.685 120.097 558.095 103.803 582.535 87.8978C599.992 76.6476 618.031 65.0095 636.264 56.087L637.04 57.4448L636.264 56.087C720.253 15.7415 827.517 25.052 909.566 79.5572C987.347 131.153 1045.73 219.215 1069.98 320.66C1076.96 349.561 1081.42 379.432 1085.88 408.334C1091.9 447.709 1098.1 488.443 1110.32 526.655C1130.3 589.5 1166.96 644.2 1213.51 680.278C1239.89 700.838 1256.38 722.369 1263.75 746.227C1273.84 778.62 1256.96 810.625 1245.91 826.918C1230 850.388 1206.92 870.173 1184.42 888.406C1103.53 954.355 1016.64 986.554 939.825 979.183C926.829 978.019 913.251 977.049 900.061 976.274C875.427 974.916 849.823 973.364 826.353 968.709L822.086 967.933C788.723 961.338 757.107 955.131 740.619 962.114C728.593 967.157 722.968 976.856 716.955 987.136C714.821 990.627 712.688 994.313 710.36 997.804C679.131 1042.03 624.044 1067.44 562.168 1067.44ZM325.527 120.678C262.293 120.678 205.266 138.718 163.951 172.468C106.73 219.215 85.9754 302.621 114.295 370.704C127.485 402.515 145.524 429.864 166.278 461.675C172.097 470.598 178.304 479.908 184.511 489.607C227.766 557.496 245.03 640.32 261.711 720.429C265.008 736.141 268.306 752.434 271.797 768.145C289.642 849.224 317.768 912.264 357.725 960.95C404.084 1017.59 468.869 1054.64 535.206 1062.4C606.781 1070.74 672.536 1045.33 707.257 996.058C709.584 992.761 711.718 989.076 713.852 985.584C719.865 975.304 726.072 964.83 739.067 959.398C756.331 952.028 788.529 958.235 822.474 965.023L826.741 965.799C850.017 970.261 875.427 971.812 900.061 973.364C913.251 974.14 927.023 974.916 940.019 976.274C1016.05 983.644 1101.98 951.64 1182.09 886.272C1204.2 868.233 1227.29 848.642 1242.8 825.56C1253.47 809.849 1269.77 778.814 1260.26 747.779C1253.08 724.503 1236.98 703.554 1211.19 683.381C1164.25 646.721 1127.2 591.634 1106.83 528.012C1094.61 489.607 1088.4 448.679 1082.39 409.11C1077.93 380.208 1073.47 350.337 1066.68 321.63C1042.63 220.766 984.632 133.674 907.626 82.4667C826.547 28.5434 720.446 19.4269 637.428 59.1905C619.389 67.9191 601.35 79.5572 584.087 90.8073C559.453 106.713 534.043 123.2 506.887 132.123C474.494 142.791 440.55 136.39 407.575 129.989C398.847 128.243 389.924 126.498 381.196 125.14C362.187 122.036 343.566 120.678 325.527 120.678Z" fill="#B9B9B9"/>
<path d="M553.827 1041.64C544.517 1041.64 534.818 1041.06 525.314 1039.9C459.753 1031.55 396.325 995.282 351.13 940.001C312.143 892.285 284.987 830.603 267.918 751.076C265.008 737.692 262.293 724.114 259.577 710.925C243.284 631.979 226.602 550.319 186.257 482.624C161.235 440.726 140.868 405.618 126.127 366.242C113.907 333.85 111.967 296.996 120.696 262.275C129.812 226.197 149.403 195.162 177.14 172.662C229.124 130.765 306.711 113.695 390.118 125.916C398.458 127.079 406.993 128.631 415.14 130.183C448.308 136.196 479.537 141.821 510.378 130.959C535.788 122.036 560.228 106.519 583.892 91.5831C602.319 79.945 621.522 67.7249 640.919 58.8024C723.938 20.7845 828.875 31.0649 908.208 84.9881C983.856 136.39 1040.69 222.9 1064.16 322.406C1070.75 350.531 1075.21 379.82 1079.48 407.946C1085.5 448.291 1091.9 489.994 1104.7 528.788C1124.48 588.918 1160.75 642.648 1206.73 680.084C1231.75 700.45 1247.26 723.92 1252.89 749.718C1259.48 779.977 1243.58 808.879 1229.03 827.694C1213.32 848.06 1192.37 865.324 1166.38 885.69C1113.23 927.587 1034.29 975.304 949.523 975.304C942.346 975.304 935.363 974.916 928.187 974.334C914.997 972.976 901.225 972.394 888.035 971.618C862.237 970.26 835.664 968.903 811.417 963.278C805.017 961.726 798.81 960.368 792.797 958.816C764.089 951.833 739.261 945.82 725.295 949.894C713.463 953.385 708.032 961.532 702.019 970.454C700.08 973.17 698.14 976.08 696.006 978.989C664.389 1019.14 611.824 1041.64 553.827 1041.64ZM337.552 125.334C275.288 125.334 219.038 142.597 178.692 175.184C123.605 219.602 103.044 297.772 128.648 365.273C143.39 404.454 162.787 438.011 188.585 481.072C229.124 549.155 245.999 631.01 262.293 710.343C265.008 723.533 267.724 737.11 270.633 750.494C287.508 829.439 314.664 890.733 353.264 938.062C397.877 992.567 460.722 1028.65 525.508 1036.79C593.397 1045.33 657.6 1022.63 692.903 977.631C695.036 974.916 696.976 972.006 698.722 969.291C704.735 960.368 710.748 951.252 723.744 947.566C738.485 943.299 763.701 949.312 792.99 956.489C799.003 958.041 805.21 959.398 811.611 960.95C835.47 966.381 862.043 967.933 887.841 969.097C901.225 969.873 914.997 970.454 928.187 971.812C1019.93 980.735 1107.22 928.945 1164.25 883.751C1190.82 862.802 1210.8 846.315 1226.32 826.142C1240.48 807.715 1255.99 779.783 1249.59 750.688C1244.16 725.666 1229.03 702.778 1204.4 682.799C1158.04 644.975 1121.38 590.664 1101.4 529.952C1088.4 490.77 1082.2 449.067 1075.99 408.528C1071.72 380.402 1067.26 351.307 1060.67 323.181C1037.39 224.452 981.14 138.523 906.074 87.7037C827.517 34.5563 723.744 24.276 641.695 61.9059C622.492 70.6345 603.483 82.6605 585.056 94.2986C561.198 109.428 536.758 124.946 510.96 134.062C479.343 145.118 446.175 139.299 414.17 133.48C406.023 131.929 397.489 130.571 389.148 129.213C371.691 126.691 354.428 125.334 337.552 125.334Z" fill="#B9B9B9"/>
<path d="M551.888 1016.43C540.056 1016.43 528.03 1015.65 515.616 1013.9C451.606 1005.37 390.118 969.873 346.863 916.919C309.039 870.755 282.853 810.624 266.948 733.425C264.814 723.339 262.681 713.058 260.741 702.972C244.642 624.027 228.154 542.56 190.33 474.283C169.188 435.877 154.64 403.097 140.48 361.005C117.98 293.892 139.123 217.857 191.882 175.959C242.12 136.196 317.38 119.515 398.265 130.571C406.217 131.735 414.17 132.898 421.929 134.256C454.322 139.687 484.969 144.73 514.84 133.48C538.698 124.558 562.168 110.01 584.862 95.8504C604.647 83.6303 625.014 71.0224 645.575 62.0998C686.114 44.4487 732.084 37.8538 778.443 42.897C824.607 47.9401 869.22 64.6214 907.044 90.8072C980.752 141.821 1036.03 226.973 1058.53 324.539C1064.93 352.083 1069.2 380.596 1073.28 408.14C1079.48 449.261 1085.88 491.934 1099.27 531.504C1118.86 588.918 1154.55 641.872 1200.13 680.471C1224.18 701.032 1238.73 726.248 1242.22 753.598C1246.1 783.469 1228.06 811.012 1212.16 829.051C1196.45 847.091 1176.66 862.026 1153.77 879.677L1148.34 883.751C1064.35 948.148 986.377 977.243 916.355 970.261C903.165 968.903 889.199 968.321 875.815 967.739C849.047 966.575 821.116 965.217 796.288 958.622C759.822 949.118 726.459 941.359 709.002 938.644C699.692 937.092 695.23 943.299 690.187 950.67C687.472 954.355 684.756 958.234 681.265 961.144C659.346 996.058 610.66 1016.43 551.888 1016.43ZM349.772 130.183C288.284 130.183 233.003 146.864 193.434 178.287C141.644 219.408 120.89 294.086 143.002 360.036C157.162 401.933 171.515 434.713 192.658 472.925C230.676 541.59 247.357 623.445 263.456 702.584C265.59 712.67 267.53 722.951 269.664 733.037C285.569 809.849 311.561 869.397 348.997 915.173C391.864 967.545 452.77 1002.65 515.81 1011.19C589.13 1021.08 652.945 1000.71 678.355 959.398L678.549 959.204L678.743 959.01C682.041 956.489 684.756 952.609 687.278 949.118C692.515 941.747 697.946 934.182 709.002 935.928C726.653 938.838 759.434 946.208 796.482 956.101C821.116 962.502 848.854 963.86 875.427 965.023C888.811 965.605 902.777 966.381 916.161 967.545C985.407 974.334 1062.61 945.433 1146.01 881.617L1151.44 877.544C1174.14 860.086 1193.92 845.151 1209.44 827.306C1224.76 809.849 1242.42 782.887 1238.73 754.18C1235.43 727.412 1221.08 702.778 1197.61 682.799C1151.64 643.811 1115.56 590.276 1095.78 532.474C1082.2 492.71 1075.8 450.037 1069.59 408.722C1065.52 381.178 1061.25 352.859 1054.85 325.509C1032.93 228.331 978.231 143.761 905.104 93.1348C829.263 40.7633 727.817 29.5131 646.544 64.6214C626.178 73.544 605.811 85.958 586.22 98.178C563.526 112.532 539.862 127.079 515.616 136.196C484.969 147.64 452.576 142.209 421.153 137.166C413.394 135.808 405.441 134.644 397.489 133.48C381.389 131.153 365.484 130.183 349.772 130.183Z" fill="#B9B9B9"/>
<path d="M545.874 991.015C533.072 991.015 519.494 990.045 505.722 988.106C443.458 979.183 383.91 944.851 342.401 893.837C305.935 849.03 280.719 790.646 265.783 715.774C264.619 710.149 263.456 704.33 262.292 698.705C246.386 618.596 229.899 535.965 194.209 465.748C175.394 428.894 167.053 398.829 158.713 369.734C157.355 364.885 155.997 360.23 154.639 355.38C138.734 300.099 148.432 224.064 206.429 178.869C254.727 141.239 327.659 125.14 406.216 134.838C413.587 135.808 421.152 136.972 428.329 137.942C459.946 142.791 489.817 147.252 518.912 135.614C541.413 126.691 563.719 113.114 585.249 99.9238C606.198 87.1219 628.116 73.932 650.035 64.8155L650.617 66.1733L650.035 64.8155C732.278 31.065 830.232 43.091 905.491 96.2384C977.26 146.864 1030.8 230.659 1052.52 326.285C1058.53 353.053 1062.8 380.984 1066.68 407.752C1072.89 449.843 1079.29 493.292 1093.45 533.443C1112.65 588.143 1147.95 640.126 1193.15 680.084C1223.21 706.657 1230.39 736.529 1231.16 756.895C1232.13 780.365 1219.91 805 1195.09 829.633C1180.93 843.793 1164.25 856.013 1144.85 870.173C1140 873.664 1135.15 877.35 1130.11 881.035C1051.94 939.032 985.794 966.575 924.112 966.575C917.517 966.575 910.923 966.187 904.328 965.605C890.944 964.248 876.978 963.666 863.4 963.278C835.469 962.114 806.568 960.95 780.77 953.385C764.476 948.536 749.347 943.687 735.963 939.226C717.73 933.213 703.182 928.363 693.484 926.618C684.367 928.169 679.906 932.049 675.057 936.122C672.535 938.256 669.82 940.583 666.328 942.523C646.349 973.364 600.961 991.015 545.874 991.015ZM362.186 134.838C301.473 134.838 246.968 150.938 208.175 181.003C151.342 225.228 141.643 300.099 157.355 354.411C158.713 359.26 160.07 363.915 161.428 368.764C169.575 397.859 178.109 427.731 196.73 464.197C232.615 534.607 249.102 617.626 265.201 697.735C266.365 703.36 267.529 709.179 268.693 714.804C283.628 789.288 308.456 847.285 344.728 891.703C385.85 942.135 444.622 976.08 506.304 984.808C578.073 995.089 639.949 977.631 664.389 940.196L664.583 939.808L664.97 939.614C668.268 937.674 670.984 935.54 673.505 933.407C678.548 929.333 683.591 924.872 693.678 923.32H693.872H694.066C703.958 925.066 718.7 929.915 737.321 936.122C750.705 940.583 765.834 945.627 782.128 950.282C807.537 957.653 836.245 958.817 863.982 959.98C877.56 960.562 891.526 961.144 904.91 962.308C971.635 968.709 1042.63 942.135 1128.56 878.32C1133.6 874.634 1138.45 870.949 1143.3 867.457C1162.5 853.492 1179.18 841.272 1193.15 827.306C1217.39 803.06 1229.22 779.396 1228.45 756.701C1227.67 736.917 1220.69 707.821 1191.4 682.023C1146.01 641.678 1110.32 589.112 1090.93 534.219C1076.77 493.874 1070.17 450.231 1063.96 407.946C1060.08 381.178 1055.82 353.441 1049.8 326.673C1028.27 231.822 975.126 148.61 903.94 98.3721C829.456 45.8066 732.666 33.9745 651.199 67.3371C629.474 76.2597 607.75 89.4495 586.801 102.251C565.077 115.441 542.77 129.019 520.076 138.136C490.205 149.968 458.588 145.119 427.941 140.463C420.764 139.299 413.199 138.33 405.829 137.36C391.281 135.808 376.539 134.838 362.186 134.838Z" fill="#B9B9B9"/>
<path d="M541.8 965.799C527.446 965.799 512.123 964.635 496.217 962.114C435.699 952.803 378.09 919.441 338.327 870.755C303.025 827.306 278.973 770.861 265.007 697.929C261.321 678.532 258.218 658.359 255.114 638.962C245.222 574.177 234.942 507.258 198.67 457.408L198.476 457.214V457.02C194.014 439.175 188.583 423.657 183.734 409.885C176.169 388.743 169.768 370.316 169.186 349.755C144.358 296.996 167.247 223.288 221.364 181.778C267.916 146.282 338.327 130.571 414.751 138.911C421.539 139.687 428.522 140.657 435.311 141.433C466.152 145.7 495.441 149.58 523.761 137.747C544.516 129.019 565.658 116.411 585.831 104.385C608.331 91.001 631.607 77.0353 655.272 67.9188L655.853 69.2765L655.272 67.9188C736.544 36.4959 832.171 49.4918 904.715 101.863C974.35 152.101 1026.33 234.538 1047.28 328.031C1053.1 354.216 1057.17 381.372 1061.05 407.752C1067.26 450.619 1073.86 494.844 1088.6 535.771C1107.41 587.561 1142.33 638.768 1186.94 680.083C1216.81 707.627 1221.85 739.05 1220.88 760.386C1219.72 783.857 1205.95 806.745 1178.79 830.603C1166.38 841.465 1151.83 851.358 1136.51 861.832C1128.75 867.069 1120.8 872.5 1112.65 878.513C1047.86 924.872 972.022 953.385 893.465 960.95C850.21 965.023 805.015 960.562 766.416 947.954C740.23 939.419 716.566 929.721 699.108 922.738C690.962 919.441 683.785 916.337 678.354 914.397C669.431 914.785 665.164 917.113 660.509 919.829C657.987 921.186 655.465 922.544 652.362 923.902C633.159 950.864 592.62 965.799 541.8 965.799ZM200.997 455.856C237.657 506.288 247.938 573.401 257.83 638.38C260.739 657.777 263.843 677.756 267.722 697.153C281.688 769.503 305.546 825.754 340.461 868.621C379.836 916.919 436.669 949.894 496.605 959.01C567.598 970.066 626.37 955.519 650.034 921.38L650.228 920.992L650.616 920.798C653.914 919.635 656.435 918.277 658.763 916.919C663.806 914.204 668.461 911.488 678.16 911.1H678.354H678.548C683.979 913.04 691.35 916.143 699.69 919.441C716.954 926.617 740.618 936.316 766.803 944.657C804.433 956.877 850.404 961.532 892.689 957.459C970.858 950.088 1046.12 921.768 1110.52 875.604C1118.86 869.591 1126.81 864.16 1134.37 858.922C1149.7 848.448 1164.24 838.556 1176.47 827.888C1203.04 804.611 1216.62 782.305 1217.59 759.611C1218.56 738.856 1213.71 708.403 1184.61 681.441C1139.61 639.738 1104.31 588.142 1085.49 535.965C1070.56 495.037 1064.16 450.425 1057.76 407.558C1053.88 381.372 1050 354.216 1044.18 328.031C1023.42 235.12 971.828 153.265 902.775 103.415C831.201 52.2073 736.544 39.4054 656.241 70.4404C632.965 79.3629 609.689 93.3286 587.383 106.712C567.016 118.932 545.873 131.54 524.925 140.269C496.023 152.489 464.988 148.222 435.117 144.148C428.328 143.179 421.539 142.403 414.557 141.627C338.909 133.286 269.08 148.804 223.11 183.912C169.962 224.645 147.462 296.996 171.902 348.785L172.096 348.979V349.367C172.484 369.54 178.885 387.773 186.45 408.915C191.105 422.493 196.73 438.011 200.997 455.856Z" fill="#B9B9B9"/>
<path d="M847.69 958.041C813.746 958.041 779.995 952.804 751.288 942.717C709.197 927.976 674.476 908.773 662.644 902.372C653.722 901.402 649.648 902.372 644.993 903.73C642.665 904.311 640.532 904.893 637.428 905.281C614.152 935.928 556.349 947.76 486.327 936.316C427.36 926.618 371.885 894.225 333.867 847.673C299.729 805.582 276.841 750.882 263.845 680.278C260.353 661.463 257.444 641.872 254.728 623.057C245.806 560.987 236.495 496.784 202.551 448.873L202.357 448.679V448.292C199.447 431.804 195.762 417.644 192.464 405.037C186.839 383.118 181.99 364.303 183.348 344.13C160.654 293.893 183.542 223.87 235.913 184.688C297.013 138.912 379.256 139.106 422.705 143.179C429.106 143.761 435.507 144.537 441.52 145.313C471.779 148.804 500.292 152.296 527.836 140.076C546.845 131.541 566.436 120.097 585.057 109.041C609.303 94.6869 634.325 79.9453 659.541 70.8287L659.929 71.9925L659.541 70.8287C739.65 41.7335 832.948 55.8932 902.971 107.489C970.666 157.339 1020.9 238.418 1040.88 329.971C1046.51 355.575 1050.39 382.148 1054.07 407.752C1060.47 451.395 1066.87 496.59 1082.39 537.905C1105.86 600.363 1148.15 649.631 1179.57 679.89C1211.19 710.343 1211.77 745.451 1209.44 763.878C1206.34 787.348 1191.01 808.685 1161.14 831.573C1150.47 839.72 1138.64 847.091 1125.84 855.043C1115.56 861.444 1104.89 868.233 1093.64 875.992C1029.44 920.411 955.731 948.148 880.665 956.295C870.384 957.459 858.94 958.041 847.69 958.041ZM656.437 899.268C658.377 899.268 660.704 899.462 663.42 899.656H663.614L663.808 899.85C675.252 906.251 709.972 925.454 752.258 940.196C790.081 953.58 837.216 958.429 881.441 953.58C956.118 945.433 1029.24 917.889 1093.06 873.664C1104.31 865.906 1114.98 859.117 1125.26 852.716C1137.87 844.763 1149.89 837.198 1160.37 829.246C1189.66 806.939 1204.59 785.991 1207.5 763.296C1209.83 745.451 1209.25 711.313 1178.41 681.636C1146.79 651.183 1104.12 601.721 1080.45 538.681C1064.93 497.172 1058.34 451.783 1051.94 407.946C1048.25 382.342 1044.37 355.769 1038.75 330.359C1018.77 239.387 968.92 158.89 901.807 109.428C832.367 58.4148 740.038 44.449 660.704 73.1564C635.682 82.2729 610.661 97.0145 586.608 111.174C567.793 122.23 548.203 133.869 529 142.403C500.874 155.011 471.973 151.52 441.326 148.028C435.119 147.252 428.718 146.476 422.511 145.895C379.256 141.821 297.983 141.627 237.465 186.822C186.063 225.228 163.369 294.087 185.869 343.161L186.063 343.548V343.936C184.512 363.915 189.167 381.76 194.986 404.261C198.284 416.869 201.969 431.028 204.878 447.516C239.017 495.814 248.327 560.211 257.444 622.475C260.159 641.29 263.069 660.687 266.56 679.696C279.556 749.913 302.251 804.224 336.001 845.927C373.437 892.091 428.524 924.096 486.715 933.601C556.155 945.045 613.182 933.407 635.489 903.148L635.876 902.76H636.458C639.562 902.372 641.889 901.79 644.217 901.208C647.902 900.044 651.2 899.268 656.437 899.268Z" fill="#B9B9B9"/>
<path d="M832.948 953.774C798.615 953.774 764.865 948.149 736.351 937.286C697.558 922.545 664.971 903.148 647.32 889.958C637.815 887.437 633.936 887.243 629.087 886.855C627.341 886.855 625.401 886.661 623.268 886.467C600.961 913.428 546.262 922.351 477.015 910.131C419.795 900.044 366.259 868.816 329.987 824.203C297.013 783.663 275.288 730.516 263.262 662.045C259.965 643.618 257.443 624.803 254.921 606.376C246.387 544.306 238.434 485.728 207.011 439.757L206.817 439.563V439.175C205.266 425.21 203.326 412.796 201.58 401.739C197.701 377.493 194.597 358.29 198.283 337.924C177.528 290.207 200.804 224.064 251.236 187.016C309.621 144.149 389.342 143.373 431.433 146.865C437.252 147.253 442.877 147.835 448.502 148.416C477.985 151.326 505.917 154.042 532.878 141.628C549.948 133.675 567.599 123.201 584.668 113.308C610.66 98.1786 637.621 82.2732 664.971 73.1566L665.359 74.3205L664.971 73.1566C743.916 46.389 834.887 61.5185 902.582 112.338C968.144 161.606 1016.83 241.521 1036.03 331.135C1041.46 356.157 1045.15 382.149 1048.64 407.17C1055.04 451.589 1061.64 497.56 1077.74 539.457C1095.97 586.397 1128.17 633.532 1173.75 679.114C1197.03 702.391 1206.34 734.201 1199.55 766.594C1192.95 797.047 1165.41 818.19 1145.24 831.574C1136.31 837.587 1126.42 843.018 1115.95 849.031C1103.34 856.208 1090.34 863.578 1076.57 872.695C1012.95 915.174 941.376 942.33 869.802 951.058C857.776 952.998 845.362 953.774 832.948 953.774ZM621.91 883.945H622.686C625.207 884.139 627.147 884.333 629.087 884.333C634.324 884.527 638.203 884.915 648.096 887.63L648.484 887.825C665.941 901.014 698.334 920.217 737.127 934.959C775.339 949.506 823.637 954.55 869.414 948.925C940.6 940.196 1011.59 913.428 1075.02 870.949C1088.79 861.639 1101.98 854.268 1114.4 847.285C1124.87 841.466 1134.57 835.841 1143.49 829.828C1163.28 816.638 1190.43 795.883 1196.64 766.4C1199.74 751.465 1203.82 713.447 1171.62 681.248C1125.84 635.277 1093.25 588.143 1075.02 540.621C1058.73 498.53 1052.13 452.365 1045.73 407.752C1042.24 382.73 1038.36 356.739 1033.12 331.911C1013.92 242.879 965.622 163.546 900.643 114.666C833.724 64.2341 743.528 49.2985 665.359 75.8722C638.203 84.9887 611.436 100.7 585.444 115.83C568.375 125.916 550.724 136.196 533.46 144.149C506.111 156.951 477.791 154.235 447.726 151.326C442.101 150.744 436.282 150.162 430.657 149.774C388.76 146.477 309.815 147.253 252.012 189.538C202.356 225.81 179.662 290.983 200.028 337.536L200.222 337.924V338.312C196.537 358.29 199.64 377.493 203.52 401.545C205.266 412.408 207.205 424.822 208.757 438.787C240.374 485.146 248.714 546.634 256.861 606.182C259.383 624.415 261.904 643.424 265.202 661.657C277.034 729.74 298.758 782.306 331.345 822.651C367.035 866.682 420.183 897.523 476.821 907.609C545.68 919.635 599.604 911.101 620.94 884.333L621.91 883.945Z" fill="#B9B9B9"/>
<path d="M818.4 949.506C783.68 949.506 749.735 943.493 721.416 932.049C688.829 918.859 663.226 900.432 644.605 887.048C639.755 883.557 635.488 880.453 631.803 877.932C623.268 872.306 619.389 871.143 614.151 869.785C612.406 869.397 610.66 868.815 608.332 868.039C586.802 891.315 535.4 897.328 466.929 884.332C411.26 873.858 359.859 843.599 325.526 801.314C293.715 762.132 272.961 710.925 262.099 644.587C259.189 626.742 256.861 608.315 254.534 590.664C246.969 531.504 239.986 475.447 211.085 431.804L210.891 431.61V431.222C210.503 420.942 209.727 411.437 209.339 403.097C207.399 374.777 206.042 354.217 212.637 333.074C194.016 287.879 217.486 225.421 265.978 190.895C321.841 150.938 398.846 149.386 439.774 151.907C444.817 152.295 449.86 152.683 454.903 153.071C483.805 155.399 511.154 157.532 537.34 144.537C552.276 137.166 567.211 128.437 582.923 119.321C611.048 103.027 640.143 85.9581 669.82 76.6476C747.408 52.2075 836.245 68.3069 901.419 118.545C964.847 167.425 1011.98 245.788 1030.41 333.656C1035.65 358.096 1039.14 383.506 1042.63 407.946C1049.03 453.14 1055.62 499.887 1072.5 542.366C1090.15 586.591 1121.19 631.591 1167.35 679.696C1200.71 714.61 1193.54 754.955 1188.88 770.667C1180.15 800.538 1152.03 819.741 1128.56 833.125C1120.8 837.586 1112.65 841.659 1103.92 845.927C1090.15 852.716 1074.63 860.668 1058.73 870.755C995.3 911.488 926.053 937.868 858.358 946.984C845.168 948.73 831.784 949.506 818.4 949.506ZM607.751 865.13L608.526 865.324C611.048 866.099 612.988 866.681 614.927 867.263C620.165 868.815 624.432 869.785 633.16 875.798C636.846 878.319 641.113 881.423 646.156 884.914C664.583 898.298 689.993 916.531 722.386 929.721C761.18 945.433 810.448 950.864 857.97 944.463C925.277 935.346 994.33 909.16 1057.37 868.621C1073.27 858.341 1088.99 850.582 1102.76 843.599C1111.49 839.332 1119.63 835.064 1127.39 830.797C1150.47 817.607 1178.02 798.792 1186.55 769.697C1191.01 754.374 1198 714.998 1165.6 681.053C1119.25 632.755 1088.02 587.561 1070.37 542.948C1053.3 500.275 1046.7 453.334 1040.3 407.946C1036.81 383.506 1033.32 358.096 1028.08 333.656C1009.65 246.564 962.907 168.589 899.867 120.097C835.276 70.2466 747.408 54.5352 670.596 78.5873L670.208 77.4234L670.596 78.5873C641.113 87.8977 612.212 104.773 584.086 121.066C568.375 130.183 553.439 138.911 538.31 146.282C511.542 159.472 483.999 157.338 454.515 155.011C449.472 154.623 444.429 154.235 439.386 153.847C398.846 151.325 322.423 152.877 267.142 192.253C219.426 226.391 196.537 287.685 214.964 331.91L215.158 332.298L214.964 332.686C208.369 353.441 209.727 374.001 211.667 402.321C212.249 410.661 212.831 419.972 213.219 430.252C242.314 474.477 249.491 530.534 256.861 589.888C259.189 607.539 261.323 625.966 264.426 643.812C275.288 709.567 295.849 760.581 327.272 799.374C361.217 841.271 412.23 871.143 467.317 881.617C535.594 894.419 586.414 888.6 606.975 865.518L607.751 865.13Z" fill="#B9B9B9"/>
<path d="M804.048 945.432C768.939 945.432 734.801 939.031 706.482 926.812C667.3 909.936 637.817 884.332 620.166 869.009L616.48 865.711C605.618 856.401 602.32 854.267 593.98 849.418C573.613 868.815 525.121 872.112 457.426 858.535C403.503 847.672 353.847 818.577 321.454 778.232C291.001 740.408 271.216 690.946 261.324 626.936C258.608 609.673 256.668 591.828 254.535 574.565C248.134 518.12 241.927 464.972 215.353 423.269L215.159 422.881V422.493C215.353 417.838 215.353 413.571 215.547 409.303C216.323 373.613 216.711 349.949 227.185 327.255C210.698 284.582 234.168 226.003 280.914 193.61C331.346 158.502 399.623 153.847 448.115 155.981C452.577 156.175 456.844 156.369 461.305 156.756C489.625 158.308 516.586 159.86 541.996 146.67C554.604 140.075 567.018 132.898 580.208 125.14C610.855 107.294 642.472 89.0615 674.671 79.557L675.059 80.7208L674.671 79.557C751.094 57.4446 837.604 74.3198 900.256 123.976C961.55 172.468 1006.94 249.473 1024.78 335.208C1029.83 359.26 1033.12 383.894 1036.42 407.946C1042.82 453.916 1049.42 501.439 1067.07 544.306C1088.99 597.841 1128.56 644.587 1160.56 679.308C1195.48 717.132 1182.67 761.162 1178.02 773.77C1166.96 803.641 1136.7 821.487 1111.68 833.707C1105.09 837.004 1097.91 839.914 1090.54 843.211C1075.41 849.806 1058.15 857.177 1040.69 868.039C977.456 907.221 910.148 932.825 846.527 942.135C832.561 944.269 818.207 945.432 804.048 945.432ZM593.592 846.509L595.144 847.478C603.678 852.522 607.17 854.655 618.032 864.16L621.717 867.457C640.338 883.557 668.464 907.997 707.451 924.872C746.827 941.747 797.259 947.372 846.333 940.195C909.76 930.885 976.486 905.281 1039.53 866.293C1057.18 855.431 1074.44 847.866 1089.76 841.271C1097.13 837.974 1104.31 835.064 1110.91 831.767C1135.54 819.741 1165.22 802.284 1176.08 773.188C1180.73 760.968 1192.95 717.907 1159.01 681.053C1126.81 646.139 1087.05 599.199 1064.94 545.469C1047.28 502.408 1040.69 454.692 1034.29 408.528C1030.99 384.67 1027.5 359.842 1022.65 335.983C1005 250.637 959.998 174.214 898.898 126.109C836.634 77.0354 751.094 60.1601 675.447 82.0786C643.442 91.3891 611.825 109.622 581.372 127.467C568.182 135.226 555.574 142.403 542.966 148.998C516.974 162.576 489.819 161.024 461.111 159.472C456.844 159.278 452.383 158.89 447.921 158.696C399.817 156.563 331.928 161.218 282.078 195.938C236.108 227.943 213.026 285.552 229.513 327.255L229.707 327.643L229.513 327.837C219.039 350.337 218.651 373.807 217.875 409.497C217.875 413.571 217.681 417.838 217.681 422.299C244.448 464.391 250.461 517.732 257.056 574.177C258.996 591.44 261.13 609.285 263.845 626.548C273.738 690.17 293.135 739.244 323.588 776.874C355.786 816.637 404.86 845.539 458.202 856.207C525.897 869.785 573.807 866.487 593.204 847.09L593.592 846.509Z" fill="#B9B9B9"/>
<path d="M790.081 941.165C754.585 941.165 720.253 934.376 691.739 921.574C649.648 902.371 619.971 873.664 601.156 853.685C597.664 849.806 594.949 846.896 592.427 844.181C587.966 839.138 584.669 835.646 579.431 830.797C555.185 850.388 494.667 842.629 447.921 832.543C395.743 821.292 348.027 793.167 317.38 755.149C288.479 719.265 269.276 669.997 260.547 609.091C258.22 592.216 256.28 574.952 254.534 558.077C248.909 504.542 243.866 454.11 219.62 414.54L219.426 414.152V413.764C223.305 372.061 226.603 345.294 241.732 321.435C227.185 280.702 250.267 226.973 295.655 196.326C343.566 164.321 409.515 159.084 456.455 160.248C460.141 160.248 463.632 160.442 467.318 160.636C495.249 161.605 521.629 162.575 546.457 148.803C556.155 143.372 565.854 137.747 576.328 131.734C609.69 112.143 644.217 91.9707 679.713 82.4662L679.907 83.63L679.713 82.4662C754.779 62.4875 838.961 80.5265 899.48 129.601C958.834 177.705 1002.48 253.352 1019.55 337.147C1024.2 360.617 1027.69 384.863 1030.8 408.333C1037.2 455.08 1043.79 503.378 1062.03 546.633C1083.36 596.871 1120.8 641.484 1154.35 679.113C1182.48 710.73 1179.76 750.494 1167.74 777.068C1154.35 806.939 1121.96 823.426 1095.39 834.482C1089.57 837.004 1083.36 839.137 1076.77 841.659C1060.47 847.672 1042.05 854.461 1023.23 865.517C958.834 903.729 895.6 927.975 835.276 937.673C820.146 940.001 804.823 941.165 790.081 941.165ZM579.431 827.887L580.207 828.469C586.026 833.512 589.518 837.392 594.173 842.629C596.501 845.344 599.216 848.254 602.708 852.133C621.329 871.918 650.812 900.432 692.515 919.44C732.473 937.673 784.262 943.493 834.694 935.346C894.824 925.647 957.67 901.595 1021.87 863.578C1040.88 852.327 1059.5 845.538 1075.8 839.525C1082.39 837.198 1088.4 834.87 1094.42 832.543C1120.6 821.68 1152.41 805.581 1165.6 776.292C1177.24 750.3 1179.96 711.506 1152.61 680.665C1118.86 642.647 1081.23 598.035 1059.89 547.409C1041.46 503.766 1034.87 455.274 1028.47 408.527C1025.37 385.057 1022.07 360.811 1017.22 337.535C1000.34 254.128 956.894 178.869 897.928 131.152C837.991 82.6602 754.585 64.8151 680.295 84.5999C644.993 93.9104 610.66 114.083 577.492 133.674C567.017 139.687 557.319 145.312 547.621 150.743C522.211 164.709 495.443 163.933 467.318 162.769C463.632 162.575 460.141 162.575 456.455 162.381C409.903 161.217 344.342 166.455 297.013 198.265C252.206 228.525 229.512 281.478 244.06 321.242L244.254 321.823L243.866 322.211C228.736 345.682 225.633 372.255 221.753 413.57C245.999 453.528 251.237 504.154 256.668 557.689C258.413 574.37 260.159 591.634 262.681 608.509C271.409 669.027 290.418 717.907 319.126 753.403C349.579 791.033 396.713 818.965 448.503 830.021C515.616 844.375 560.81 843.793 578.849 828.081L579.431 827.887Z" fill="#B9B9B9"/>
<path d="M775.922 937.092C740.037 937.092 705.317 929.915 676.803 916.337C633.355 895.583 603.483 864.16 585.832 841.66C580.983 835.453 577.88 830.603 574.97 826.142C571.866 821.293 569.151 817.026 564.884 812.176C547.039 824.008 505.529 822.069 438.222 806.745C386.821 795.107 342.402 768.533 313.112 732.067C285.375 697.541 267.336 650.213 259.577 591.44C257.444 574.953 255.892 558.078 254.34 541.784C249.685 491.352 245.417 443.636 223.693 406.2L223.499 405.812V405.424C230.288 364.497 237.465 337.923 256.086 316.005C243.672 277.987 266.948 227.943 310.397 199.43C345.893 176.154 396.713 164.515 461.304 164.515C462.274 164.515 463.438 164.515 464.408 164.515C467.123 164.515 470.033 164.515 472.749 164.515C500.292 164.903 526.478 165.097 550.724 150.938C557.125 147.252 563.72 143.179 570.509 139.3C606.975 117.381 644.799 94.8807 684.174 85.3763C758.852 67.3372 838.767 85.9582 897.928 135.032C955.148 182.554 997.24 256.844 1013.53 338.893C1017.99 361.781 1021.29 385.64 1024.4 408.528C1030.8 456.05 1037.39 505.124 1056.4 548.767C1077.35 596.677 1113.62 639.35 1145.82 676.98L1147.57 678.92C1176.08 712.477 1170.45 754.568 1156.88 780.365C1140.97 810.625 1106.64 825.56 1078.51 835.065C1073.08 836.81 1067.46 838.556 1061.64 840.302C1044.37 845.539 1024.98 851.358 1005.19 862.608C939.437 899.85 880.083 922.738 823.444 932.631C807.538 935.734 791.633 937.092 775.922 937.092ZM565.272 809.267L565.854 810.043C570.509 815.28 573.418 819.741 576.716 824.978C579.625 829.246 582.729 834.289 587.578 840.302C605.035 862.802 634.712 893.837 677.773 914.398C718.507 933.989 771.46 940.002 823.056 930.885C879.307 921.187 938.467 898.298 1004.03 861.056C1024.01 849.806 1043.6 843.793 1061.06 838.556C1066.87 836.81 1072.5 835.065 1077.93 833.319C1105.67 823.815 1139.61 809.267 1155.13 779.59C1168.32 754.374 1173.94 713.058 1146.21 680.472L1144.46 678.532C1112.26 640.708 1075.8 598.035 1054.65 549.737C1035.45 505.706 1028.86 456.438 1022.46 408.916C1019.35 386.027 1016.25 362.363 1011.59 339.475C995.494 258.008 953.597 184.106 896.764 136.778C838.185 88.0918 759.046 69.6648 684.95 87.5099C645.769 97.0144 608.139 119.515 571.867 141.239C565.272 145.313 558.677 149.192 552.082 152.877C527.254 167.425 500.874 167.037 472.943 166.843C470.227 166.843 467.511 166.843 464.602 166.843C398.847 166.455 347.445 178.093 311.561 201.563C268.694 229.689 245.805 278.957 258.219 316.199L258.413 316.781L258.025 317.169C239.598 338.699 232.422 364.885 225.633 405.618C247.357 443.442 251.624 491.158 256.28 541.784C257.831 558.078 259.189 574.953 261.517 591.246C269.082 649.631 286.927 696.571 314.664 730.904C343.76 766.982 387.79 793.167 438.61 804.806C506.305 820.323 547.621 821.875 564.496 810.043L565.272 809.267Z" fill="#B9B9B9"/>
<path d="M761.956 932.825C725.49 932.825 690.77 925.26 661.868 910.906C612.794 886.272 583.505 849.224 570.509 829.245C565.466 821.681 562.556 815.474 559.453 809.461C556.737 804.029 554.216 798.792 550.336 793.167C529.97 803.254 479.732 793.167 428.33 780.559C378.674 768.533 336.195 742.929 308.651 708.791C281.884 675.428 265.009 630.04 258.414 573.401C256.474 557.302 255.31 541.008 254.146 525.103C250.461 477.58 247.163 432.774 227.961 397.471L227.767 397.084V396.696C238.241 352.471 249.879 329.001 270.634 310.38C260.353 274.883 283.824 228.525 325.333 202.339C359.665 180.809 407.963 169.946 473.137 168.783H478.374C505.723 168.395 531.521 168.007 555.573 153.265L563.138 148.61C601.544 124.752 645.187 97.984 689.412 88.2856C762.732 72.3802 840.319 91.971 897.152 140.463C953.015 188.179 992.391 259.366 1008.3 340.639C1012.56 363.139 1015.67 386.221 1018.58 408.722C1024.98 456.826 1031.38 506.676 1051.36 550.901C1070.17 592.992 1100.62 629.652 1130.11 665.148C1133.99 669.803 1137.67 674.265 1141.36 678.726C1170.45 714.028 1162.31 757.477 1146.6 783.663C1128.17 814.504 1091.7 827.694 1062.03 835.84C1056.98 837.198 1051.74 838.556 1046.31 839.72C1028.27 843.987 1007.91 849.03 987.347 860.086C944.868 883.169 880.277 915.173 812 927.975C795.125 931.273 778.443 932.825 761.956 932.825ZM551.112 790.646L551.694 791.422C555.961 797.435 558.677 802.866 561.392 808.685C564.302 814.504 567.406 820.711 572.255 828.276C585.251 848.06 614.152 884.72 662.838 909.16C704.347 929.915 758.464 936.316 811.418 926.23C879.501 913.428 943.898 881.423 986.184 858.535C1006.94 847.284 1027.5 842.435 1045.54 837.974C1050.97 836.616 1056.21 835.452 1061.25 834.095C1090.54 826.142 1126.42 812.952 1144.46 782.887C1159.79 757.089 1167.74 714.804 1139.42 680.278C1135.73 675.816 1132.05 671.161 1128.17 666.7C1098.69 631.204 1068.23 594.35 1049.22 552.064C1029.24 507.646 1022.65 457.602 1016.44 409.304C1013.53 386.803 1010.43 363.721 1006.16 341.415C990.451 260.53 951.269 189.925 895.794 142.403C839.543 94.2986 762.538 74.9018 689.8 90.6132L689.606 89.6434L689.8 90.6132C645.963 100.118 602.514 126.885 564.302 150.55L556.737 155.205C532.297 170.334 506.111 170.722 478.568 171.11H473.331C408.545 172.08 360.635 183.136 326.69 204.473C285.763 230.271 262.681 276.047 272.961 310.768L273.155 311.349L272.767 311.737C252.207 330.164 240.568 353.247 230.094 397.084C249.297 432.58 252.789 477.58 256.474 525.297C257.638 541.202 258.995 557.496 260.741 573.595C267.336 629.652 284.017 674.846 310.591 707.821C337.941 741.766 380.032 766.982 429.106 779.008C480.702 791.615 531.133 801.702 550.336 791.228L551.112 790.646Z" fill="#B9B9B9"/>
<path d="M748.183 928.752C711.329 928.752 676.22 920.799 647.125 905.669C593.396 877.35 565.077 834.483 555.378 817.22C550.335 808.491 547.425 800.926 544.71 793.75C542.188 787.155 539.861 781.142 536.175 774.547C517.36 780.366 471.778 768.534 419.018 754.956C371.108 742.542 330.569 717.908 304.771 685.903C279.167 653.898 263.455 610.255 257.83 555.944C256.279 540.233 255.309 524.327 254.339 508.81C251.623 464.391 249.102 422.3 232.421 389.325L232.227 388.937L232.421 388.549C245.416 346.458 260.74 322.212 285.568 305.143C277.615 272.362 301.085 229.689 340.655 205.637C382.358 180.421 438.027 174.99 481.67 173.244H483.416C510.765 172.081 536.563 171.111 560.421 155.593C602.9 127.856 648.289 100.118 694.648 91.3896L694.842 92.3595L694.648 91.3896C766.416 77.6178 841.87 98.1785 896.375 146.283C950.104 193.611 987.928 263.246 1003.06 342.773C1007.13 364.691 1010.23 387.386 1012.95 409.498C1019.16 458.378 1025.75 509.004 1046.31 553.617C1063.77 591.246 1090.73 624.415 1116.72 656.42C1123.12 664.179 1129.14 671.549 1134.96 679.114C1162.5 714.029 1155.32 758.835 1135.93 787.543C1114.59 819.353 1074.05 831.186 1045.34 837.199C1040.49 838.168 1035.45 839.138 1030.21 840.108C1011.59 843.406 990.643 847.285 969.501 858.147C916.742 885.303 859.909 912.07 800.36 924.096C782.903 927.006 765.252 928.752 748.183 928.752ZM536.951 772.219L537.339 772.995C541.218 779.978 543.74 786.379 546.456 793.168C549.171 800.345 552.081 807.715 556.93 816.444C566.434 833.513 594.56 876.186 647.901 904.118C690.186 926.23 745.467 932.825 799.778 921.963C859.133 910.131 915.966 883.363 968.531 856.207C989.868 845.151 1011.2 841.272 1029.83 837.974C1035.06 837.005 1040.11 836.035 1044.76 835.065C1073.08 829.052 1113.23 817.414 1133.99 786.185C1153 757.865 1159.98 714.223 1133.02 679.89C1127.2 672.325 1121.18 664.955 1114.78 657.196C1088.6 624.997 1061.64 591.828 1044.18 554.005C1023.42 509.198 1017.02 458.378 1010.62 409.498C1007.71 387.58 1004.8 364.885 1000.73 342.967C985.794 263.828 948.164 194.387 894.823 147.447C840.706 99.7303 765.834 79.3636 694.648 92.9414C648.677 101.67 603.482 129.407 561.197 156.951C536.951 172.662 510.959 173.826 483.222 174.796H481.476C438.027 176.542 382.746 181.779 341.237 206.995C302.055 230.659 278.973 272.75 287.12 304.949L287.314 305.531L286.732 305.919C262.098 322.794 246.774 346.652 233.972 388.355C250.848 421.718 253.369 463.809 256.085 508.422C257.055 523.939 258.024 539.845 259.576 555.556C265.201 609.479 280.719 652.928 306.129 684.545C331.538 716.356 371.884 740.602 419.406 753.016C472.554 766.788 518.524 778.814 536.175 772.413L536.951 772.219Z" fill="#B9B9B9"/>
<path d="M734.412 924.679C697.17 924.679 661.673 916.338 632.19 900.238C575.939 869.591 548.978 823.427 540.055 805C535.206 795.107 532.49 786.379 529.775 777.844C527.447 770.28 525.12 763.103 521.628 755.538C508.05 757.09 480.701 749.331 442.877 738.275C432.209 735.171 421.152 732.068 409.32 728.77C376.734 719.654 331.151 700.839 300.504 662.433C276.064 631.786 261.322 589.889 256.861 537.905C255.503 522.582 254.921 506.87 254.146 491.741C252.4 450.425 250.654 411.244 236.3 380.403L236.106 380.015L236.3 379.627C252.012 338.7 271.021 314.647 299.728 299.13C293.909 268.871 317.573 229.883 355.203 208.159C393.027 186.24 442.101 180.227 489.817 177.124C515.033 175.378 541.025 173.632 564.883 157.339C601.737 132.123 650.229 101.864 699.303 93.7173C769.52 82.0792 842.646 103.61 895.212 151.132C946.807 197.878 983.079 266.349 997.433 343.743C1001.51 365.273 1004.22 387.386 1006.94 408.916C1013.14 458.572 1019.55 509.78 1041.08 554.78C1057.18 588.531 1081.42 618.79 1104.89 648.079C1113.23 658.36 1120.99 668.058 1128.36 677.951C1156.1 714.611 1146.21 761.551 1125.26 789.87C1106.83 814.698 1076.18 829.634 1028.66 837.005C1024.01 837.781 1019.16 838.362 1013.92 838.944C994.911 841.272 973.187 843.988 951.462 854.656C902.194 878.708 846.331 906.057 788.529 918.471C770.49 922.739 752.257 924.679 734.412 924.679ZM522.598 753.598L522.792 754.18C526.671 762.133 528.999 769.504 531.327 777.456C534.042 785.797 536.758 794.526 541.413 804.418C550.335 822.651 577.103 868.428 632.772 898.881C676.027 922.545 732.472 929.14 787.947 917.308C845.556 904.894 901.419 877.738 950.493 853.686C972.411 843.018 994.135 840.302 1013.34 837.781C1018.38 837.199 1023.23 836.617 1028.08 835.841C1075.02 828.47 1105.47 813.729 1123.51 789.482C1144.07 761.745 1153.77 715.58 1126.62 679.696C1119.05 669.804 1111.29 660.105 1103.15 649.825C1079.68 620.536 1055.24 590.277 1038.94 556.138C1017.41 510.944 1011.01 459.542 1004.61 409.692C1001.89 388.161 999.179 366.049 995.105 344.519C980.752 267.319 944.673 199.236 893.466 152.878C841.482 105.549 768.744 84.2129 699.109 95.851L698.915 94.8811L699.109 95.851C650.423 103.998 602.125 133.869 565.465 159.085C541.413 175.572 515.033 177.512 489.623 179.063C442.295 182.167 393.415 188.18 355.785 209.904C318.543 231.435 295.267 270.035 301.28 299.518L301.474 300.1L301.28 300.682C272.767 315.811 253.758 339.669 238.24 380.209C252.594 411.244 254.34 450.425 256.085 491.935C256.667 507.064 257.443 522.776 258.801 538.099C263.262 589.695 277.81 631.398 302.056 661.657C332.509 699.675 377.51 718.296 409.902 727.219C421.734 730.516 432.791 733.619 443.459 736.723C480.313 747.391 509.214 755.732 522.21 753.792L522.598 753.598Z" fill="#B9B9B9"/>
<path d="M720.64 920.605C683.01 920.605 647.126 911.876 617.255 895.001C559.064 862.027 533.072 812.759 524.732 792.974C520.076 782.112 517.555 772.025 515.033 762.327C512.706 753.598 510.766 745.258 507.08 736.723C498.158 735.753 482.252 730.322 460.528 722.951C443.653 717.132 422.704 709.955 399.428 702.972C368.005 693.662 324.556 675.041 296.043 639.545C272.766 610.255 259.189 570.104 255.697 520.254C254.727 505.125 254.339 489.607 253.951 474.671C253.176 436.46 252.4 400.381 240.374 371.868L240.18 371.48L240.374 371.092C258.801 330.941 281.495 307.083 314.082 293.505C310.396 265.573 333.672 231.047 369.751 211.068C408.156 189.926 459.946 184.882 497.77 181.197C523.762 178.675 547.038 175.378 568.956 159.279C619.388 122.619 663.419 102.058 703.764 96.4328C772.235 86.9283 843.228 109.235 893.66 156.563C942.928 202.728 977.648 269.841 991.226 345.488C995.105 366.437 997.627 388.355 1000.34 409.304C1006.55 459.542 1012.95 511.525 1035.06 556.914C1050.19 587.561 1072.11 615.299 1093.64 641.872C1103.34 654.092 1112.65 665.73 1121.38 677.562C1149.5 716.162 1137.28 764.46 1114.2 792.974C1088.6 824.591 1048.45 842.048 1011.4 837.587C987.346 834.677 959.415 839.72 933.229 851.94C927.41 854.656 921.397 857.565 915.384 860.281C870.771 881.229 824.607 902.76 776.503 913.816C758.076 918.471 739.261 920.605 720.64 920.605ZM242.313 371.674C254.339 400.382 255.115 436.654 255.891 474.865C256.279 489.801 256.473 505.125 257.637 520.254C260.934 569.716 274.512 609.48 297.594 638.575C325.72 673.877 368.781 692.304 400.01 701.421C423.286 708.21 444.235 715.58 461.11 721.399C483.222 728.964 499.128 734.589 507.856 735.171H508.438L508.632 735.559C512.318 744.482 514.451 753.016 516.779 761.939C519.3 771.637 521.822 781.53 526.477 792.392C534.818 811.983 560.422 860.863 618.224 893.643C662.255 918.665 720.058 925.648 776.697 912.652C824.607 901.79 870.577 880.26 915.19 859.311C921.203 856.595 927.216 853.686 933.035 850.97C959.609 838.75 987.734 833.513 1012.17 836.423C1048.45 840.884 1088.21 823.621 1113.43 792.392C1136.12 764.266 1147.95 716.938 1120.41 679.114C1111.87 667.282 1102.56 655.644 1092.67 643.424C1071.33 616.656 1049.03 588.919 1033.9 558.078C1011.59 512.495 1005.19 460.318 998.985 409.886C996.463 388.937 993.747 367.019 989.868 346.07C976.29 270.81 941.764 204.085 892.69 158.115C842.646 111.174 772.235 88.868 704.152 98.3725L703.958 97.5966L704.152 98.3725C664.195 103.998 620.358 124.364 570.12 160.83C547.814 176.93 524.344 180.421 498.158 182.943C460.528 186.628 408.932 191.671 370.915 212.426C335.612 231.823 312.142 266.737 316.215 293.699V294.281L315.633 294.475C283.241 308.246 260.546 331.911 242.313 371.674Z" fill="#B9B9B9"/>
<path d="M707.837 916.532C669.431 916.532 632.383 907.415 602.512 889.764C560.227 864.936 526.283 825.172 509.601 780.948C505.14 768.922 502.618 757.671 500.485 746.809C498.351 736.917 496.411 727.606 492.92 717.908C488.071 716.162 481.088 713.059 472.165 709.179C453.156 700.839 424.643 688.037 389.923 677.174C345.892 663.209 312.917 642.842 291.969 616.462C269.662 588.337 257.248 550.125 254.921 502.603C254.145 487.473 254.145 472.344 254.145 457.602C254.145 422.688 254.145 389.713 244.64 363.527L244.446 363.139L244.64 362.752C265.783 323.182 292.55 299.324 328.629 288.268C327.271 263.052 350.547 232.017 384.686 214.366C417.854 197.102 460.527 191.671 498.157 186.822L506.11 185.852C533.071 182.361 553.826 177.124 573.611 161.994C606.198 136.972 656.047 105.937 708.613 99.9242C775.338 92.3594 844.197 115.83 892.495 162.576C939.629 208.159 972.604 273.914 985.6 347.816C989.285 368.377 991.807 389.713 994.329 410.274C1000.34 461.288 1006.74 514.047 1029.82 559.63C1043.98 587.561 1064.16 612.971 1083.75 637.605C1094.8 651.377 1105.28 664.567 1114.78 678.144C1141.94 716.938 1129.72 767.176 1103.53 797.047C1075.99 828.276 1033.51 844.763 994.91 839.138C968.919 835.259 940.793 839.138 915.383 850.194C904.521 854.85 893.465 859.893 882.603 864.936C844.585 882.199 805.209 900.238 764.864 909.937C746.243 914.204 726.846 916.532 707.837 916.532ZM246.386 363.139C255.89 389.519 255.89 422.494 255.89 457.408C255.89 472.15 255.89 487.279 256.666 502.409C258.994 549.543 271.214 587.561 293.326 615.299C314.081 641.29 346.668 661.657 390.505 675.429C425.225 686.485 453.932 699.093 472.941 707.628C482.058 711.701 489.235 714.804 493.89 716.55L494.278 716.744L494.472 717.132C497.963 727.024 500.097 736.529 502.23 746.615C504.558 757.477 506.886 768.534 511.347 780.366C527.834 824.397 561.585 863.772 603.482 888.406C647.901 914.592 708.419 921.963 765.252 907.997C805.597 898.105 844.779 880.26 882.797 862.996C893.659 858.147 904.715 852.91 915.577 848.255C940.987 837.199 969.501 833.125 995.88 837.199C1033.9 842.824 1075.99 826.53 1103.14 795.689C1128.75 766.4 1140.77 716.938 1114.2 678.726C1104.7 665.148 1094.42 652.153 1083.36 638.381C1063.77 613.747 1043.4 588.337 1029.24 560.211C1006.16 514.241 999.76 461.482 993.553 410.274C991.031 389.713 988.51 368.377 985.018 347.816C972.022 274.302 939.242 208.934 892.301 163.352C844.197 116.799 775.92 93.5232 709.583 101.088V100.312V101.088C657.211 107.101 607.749 137.942 575.357 162.77C555.378 178.093 534.429 183.525 507.08 187.016L499.127 187.986C461.691 192.835 419.212 198.266 386.237 215.335C352.487 232.793 329.211 263.634 331.15 288.268V288.85L330.568 289.043C294.102 300.488 267.529 323.958 246.386 363.139Z" fill="#B9B9B9"/>
<path d="M694.26 912.459C655.466 912.459 618.03 902.954 587.577 884.333C544.128 857.953 509.99 815.862 494.278 768.728C490.011 755.732 487.683 743.318 485.55 731.292C483.61 720.236 481.67 709.762 478.373 698.899C464.795 690.171 429.687 667.67 380.031 650.989C337.164 636.441 306.905 617.432 287.702 593.186C266.559 566.225 255.115 529.759 253.951 484.758C253.563 469.629 253.951 454.499 254.339 439.757C255.309 408.334 256.085 378.463 248.908 354.799V354.411L249.102 354.217C273.154 315.036 303.995 291.565 343.565 282.643C344.341 260.143 368.005 232.793 399.816 217.275C428.329 203.504 464.601 197.879 496.606 193.029C502.813 192.06 509.02 191.09 514.839 190.12C535.594 186.628 557.512 181.197 578.461 164.128C603.871 143.373 655.272 107.877 713.851 102.834C779.024 97.209 845.361 121.649 891.914 168.201C936.721 213.202 968.338 277.794 980.558 349.756C984.049 369.929 986.377 390.683 988.704 410.856C994.717 462.452 1000.92 515.987 1024.78 561.958C1038.17 587.561 1056.79 611.032 1075.02 633.532C1086.66 647.886 1098.49 663.015 1108.58 677.951C1135.93 718.684 1121.57 770.28 1093.25 800.151C1063.96 831.186 1018.96 846.703 978.618 839.526C958.833 836.035 928.768 834.483 897.927 847.285C883.573 853.104 869.414 859.505 854.478 866.294C821.891 881.036 788.141 896.165 753.808 904.894C734.023 909.937 714.045 912.459 694.26 912.459ZM250.46 354.799C257.637 378.657 256.861 408.528 255.891 439.951C255.503 454.693 255.115 469.822 255.503 484.758C256.667 529.565 267.917 565.837 288.866 592.411C308.069 616.657 337.94 635.278 380.613 649.825C430.463 666.701 465.959 689.589 479.343 698.123L479.537 698.317V698.511C483.028 709.568 484.968 720.042 486.908 731.292C489.041 743.318 491.175 755.538 495.442 768.534C511.154 815.28 544.904 857.178 588.159 883.363C633.742 910.907 695.424 918.666 753.032 903.73C787.365 894.808 820.921 879.678 853.508 865.13C867.862 858.729 882.797 851.941 897.151 846.121C928.38 833.32 958.833 834.871 978.618 838.363C1018.58 845.346 1062.99 830.022 1091.9 799.375C1119.83 769.892 1133.79 719.072 1107.03 678.921C1096.94 663.985 1085.69 649.631 1073.47 634.696C1055.24 612.001 1036.61 588.531 1023.23 562.927C999.179 516.763 992.971 463.228 986.958 411.438C984.631 391.265 982.109 370.511 978.812 350.338C966.592 278.57 935.169 214.366 890.556 169.559C844.392 123.395 778.442 99.1486 713.657 104.774V103.998V104.774C655.466 109.817 604.453 145.119 579.043 165.874C558.094 182.555 535.982 188.18 515.033 191.672C509.214 192.641 503.007 193.611 496.8 194.581C464.989 199.43 428.911 205.055 400.592 218.827C368.781 234.151 345.504 261.306 345.117 283.419V284.001L344.535 284.195C304.965 292.729 274.318 315.811 250.46 354.799Z" fill="#B9B9B9"/>
<path d="M680.683 908.58C641.501 908.58 603.678 898.493 572.643 879.29C528.03 851.359 493.891 806.746 478.956 756.896C474.688 742.93 472.749 729.353 470.809 716.163C469.063 703.943 467.318 692.305 464.02 680.473C448.115 664.955 414.17 641.291 370.333 625.385C341.82 615.105 306.324 599.394 283.436 570.298C263.651 545.083 253.176 509.392 252.982 467.107C252.982 451.784 253.952 436.654 254.728 421.913C256.28 393.981 258.026 367.601 252.982 346.459V346.071L253.176 345.877C279.944 306.889 315.246 283.807 357.919 277.212C361.023 257.233 384.299 233.763 414.558 220.379C438.804 209.517 467.9 204.474 495.831 199.625C505.336 197.879 514.258 196.327 522.987 194.581C548.203 189.344 566.242 181.004 582.923 166.456C624.432 130.572 673.894 108.459 718.507 105.744C781.741 101.864 846.138 127.274 890.557 173.633C933.23 218.052 963.101 281.091 974.739 351.502C978.037 371.287 980.365 391.653 982.498 411.438C988.511 463.81 994.524 517.927 1019.35 564.285C1031.96 587.756 1049.42 609.48 1066.1 630.235C1078.51 645.558 1091.31 661.658 1101.79 677.757C1114.4 697.348 1118.47 720.624 1113.62 745.064C1109.35 766.789 1097.91 788.125 1082.39 803.643C1051.36 834.484 1004.03 849.031 961.743 840.497C930.515 834.29 903.747 835.647 879.695 844.764C862.82 851.165 845.168 859.118 828.293 866.682C800.168 879.29 771.072 892.286 741.589 900.433C721.804 905.864 701.05 908.58 680.683 908.58ZM254.534 346.265C259.383 367.601 257.832 393.981 256.28 421.913C255.504 436.654 254.534 451.978 254.534 467.107C254.534 496.396 259.771 537.712 284.599 569.329C307.294 598.23 342.79 613.747 370.915 624.028C414.946 640.127 449.279 663.985 465.184 679.503L465.378 679.697V679.891C468.675 691.917 470.615 704.137 472.361 715.969C474.301 728.965 476.24 742.543 480.508 756.508C495.249 805.97 529.194 850.389 573.613 878.127C620.359 907.416 683.205 915.175 741.783 899.075C771.072 890.928 800.168 877.933 828.293 865.325C845.168 857.76 862.82 849.807 879.695 843.406C903.941 834.29 931.096 832.738 962.519 838.945C1004.22 847.286 1051.16 832.932 1082 802.479C1111.29 773.384 1127.97 720.042 1101.21 678.533C1090.73 662.434 1077.93 646.528 1065.71 631.011C1048.84 610.062 1031.38 588.338 1018.77 564.673C993.942 518.121 987.735 464.004 981.722 411.438C979.589 391.653 977.261 371.287 973.964 351.696C962.325 281.673 932.648 218.827 890.169 174.603C845.944 128.632 782.129 103.416 719.283 107.102V106.326V107.102C674.864 109.817 625.596 131.736 584.475 167.426C567.599 181.973 549.366 190.508 523.956 195.745C515.422 197.491 506.305 199.043 496.801 200.788C468.869 205.638 439.968 210.875 415.722 221.543C385.463 234.927 362.575 258.203 359.859 277.988V278.57H359.277C316.41 284.777 281.302 307.665 254.534 346.265Z" fill="#B9B9B9"/>
<path d="M667.299 904.7C627.73 904.7 589.324 894.225 557.901 873.859C512.125 844.375 477.986 797.435 463.826 744.676C459.753 729.74 458.007 714.998 456.262 700.839C454.71 688.037 453.158 674.653 449.861 661.657C436.865 643.812 405.83 617.044 360.829 599.393C330.57 587.561 299.535 573.013 279.362 547.022C255.504 516.569 251.431 476.999 252.207 449.262C252.595 433.55 254.146 418.033 255.504 403.097C257.832 379.045 259.965 356.351 257.25 337.73V337.536L257.444 337.342C287.121 298.548 326.885 275.854 372.661 271.78C378.092 254.517 401.368 234.732 429.494 223.288C449.667 215.141 473.525 210.486 496.607 206.025C509.021 203.697 520.659 201.37 531.521 198.654C553.828 193.029 571.091 183.719 587.578 168.589C626.76 132.511 677.58 110.011 723.55 108.653C785.038 106.713 847.108 133.093 889.587 179.063C929.933 222.9 958.252 284.582 969.308 353.053C972.412 372.256 974.546 392.235 976.679 411.632C982.498 464.779 988.511 519.478 1014.12 566.031C1026.14 587.755 1042.24 607.734 1057.95 627.131C1071.14 643.23 1084.72 660.105 1095.39 677.368C1122.54 721.593 1103.53 776.874 1071.92 806.551C1035.26 840.69 982.886 844.181 945.45 840.884C940.213 840.496 934.976 839.72 929.351 839.138C907.626 836.617 885.126 833.901 862.044 841.854C843.229 848.449 823.832 857.177 805.017 865.712C780.771 876.768 755.555 888.018 730.145 895.389C709.584 901.596 688.248 904.7 667.299 904.7ZM258.608 337.924C261.323 356.545 259.19 379.239 256.862 403.291C255.504 418.227 253.952 433.744 253.565 449.455C252.789 476.999 256.862 516.375 280.332 546.44C300.505 572.044 331.152 586.591 361.411 598.423C406.606 616.074 438.029 643.23 451.024 661.269L451.218 661.463C454.516 674.653 456.068 688.037 457.813 701.033C459.559 715.192 461.305 729.934 465.378 744.87C479.344 797.241 513.482 843.987 558.871 873.277C606.781 904.118 670.985 912.264 730.339 894.807C755.555 887.436 780.771 876.186 805.017 865.13C823.832 856.595 843.229 847.867 862.044 841.272C885.32 833.125 908.984 836.035 929.933 838.362C935.558 838.944 940.795 839.72 945.838 840.108C983.08 843.212 1035.06 839.914 1071.53 805.97C1102.76 776.68 1121.57 722.175 1094.81 678.338C1084.14 661.075 1070.56 644.394 1057.56 628.294C1041.85 608.898 1025.56 588.919 1013.53 567C987.735 520.254 981.722 465.167 975.903 412.02C973.77 392.623 971.636 372.838 968.532 353.441C957.476 285.164 929.351 223.676 889.199 180.033C846.914 134.257 785.038 108.071 724.132 110.011V109.429V110.011C678.55 111.562 627.924 133.675 588.936 169.559C572.255 184.882 554.798 194.387 532.297 200.012C521.435 202.727 509.797 205.055 497.383 207.383C474.495 211.844 450.637 216.305 430.658 224.452C397.877 237.642 378.48 258.59 374.407 272.556L374.213 272.944H373.825C327.854 277.017 288.285 299.518 258.608 337.924Z" fill="#B9B9B9"/>
<path d="M654.498 900.626C614.347 900.626 574.583 889.569 542.966 868.621C496.22 837.78 461.887 788.124 448.504 732.649C445.206 719.071 444.43 705.493 443.654 692.497C442.491 675.234 441.521 658.941 435.508 642.841C427.943 622.863 399.042 593.573 351.131 573.401C322.812 561.569 293.717 547.797 275.096 523.939C252.595 495.037 249.686 457.602 251.238 431.416C252.207 415.122 254.535 399.023 256.669 383.505C259.578 363.527 262.294 344.712 261.324 329V328.806L261.518 328.612C294.686 289.625 337.941 267.9 387.016 265.961C393.61 253.935 413.783 236.865 444.236 226.003C460.53 220.184 479.538 216.305 497.771 212.619C512.707 209.516 526.867 206.606 539.669 202.727C559.454 196.714 575.165 187.015 592.04 170.528C629.67 133.674 680.684 111.562 728.206 111.368C728.4 111.368 728.594 111.368 728.788 111.368C788.142 111.368 847.691 138.717 888.23 184.494C927.024 228.137 953.016 287.103 963.49 354.798C966.399 373.613 968.533 393.204 970.473 412.019C976.098 465.748 982.111 521.417 1008.68 568.164C1020.13 588.336 1035.26 606.763 1050 624.608C1063.77 641.29 1077.93 658.747 1088.79 676.98C1115.95 723.338 1095 779.977 1061.25 809.654C1030.22 837.004 983.081 848.448 928.77 841.465C923.338 840.883 917.907 839.914 912.088 838.944C890.17 835.452 867.281 831.767 844.005 839.138C823.833 845.539 803.272 855.043 783.293 864.16C762.151 873.858 740.426 883.75 718.508 890.539C697.947 897.328 676.223 900.626 654.498 900.626ZM262.876 329.388C263.652 345.1 260.936 363.915 258.026 383.893C255.893 399.411 253.565 415.316 252.595 431.61C251.044 457.602 253.759 494.649 276.065 523.357C294.493 547.021 323.588 560.599 351.713 572.431C399.817 592.604 429.107 622.281 436.671 642.454C442.684 658.553 443.848 675.04 444.818 692.303C445.594 705.493 446.564 718.877 449.667 732.261C462.857 787.542 496.996 836.81 543.548 867.457C592.04 899.462 658.959 907.996 718.314 889.763C740.232 882.975 761.957 873.082 783.099 863.384C803.078 854.267 823.639 844.763 844.005 838.362C867.475 830.797 890.364 834.482 912.476 838.168C918.295 839.138 923.726 839.914 928.964 840.689C960.386 844.569 1019.16 845.733 1060.67 809.073C1094.03 779.589 1114.79 723.726 1088.02 677.95C1077.35 659.717 1063.19 642.454 1049.42 625.772C1034.68 607.733 1019.55 589.306 1007.91 569.133C981.141 522.193 975.322 466.524 969.697 412.601C967.757 393.786 965.624 374.195 962.714 355.38C952.24 287.879 926.248 229.107 887.648 185.658C847.303 140.075 787.948 112.919 728.982 112.919C728.788 112.919 728.594 112.919 728.4 112.919V112.338V112.919C681.072 113.113 630.446 135.032 593.01 171.692C575.941 188.373 560.229 198.072 540.251 204.085C527.449 207.964 513.289 210.874 498.353 213.977C480.12 217.662 461.305 221.542 445.012 227.361C414.559 238.223 394.58 255.098 388.373 267.124L388.179 267.318H387.791C338.911 269.064 295.656 290.595 262.876 329.388Z" fill="#B9B9B9"/>
<path d="M641.113 896.747C600.574 896.747 560.423 885.302 528.03 863.384C480.314 830.991 445.787 779.008 433.373 720.623C430.27 705.882 429.3 690.946 428.524 676.592C427.554 658.359 426.584 641.29 421.153 624.027C413.976 600.751 386.627 567.97 341.432 547.409L340.268 546.827C315.828 535.771 288.285 523.163 270.827 500.663C254.146 479.132 246.969 448.291 250.461 413.571C252.207 396.114 255.698 379.239 258.995 362.945C262.099 347.428 265.202 332.88 265.978 320.466V320.272L266.172 320.078C301.863 281.672 349.579 260.53 400.786 260.53C401.174 260.53 401.756 260.53 402.144 260.53C410.097 251.607 429.882 238.029 459.559 228.913C471.973 225.034 486.133 222.124 499.904 219.215C516.586 215.723 533.849 212.232 548.397 206.801C569.733 199.042 584.281 185.852 597.083 172.468C632.773 135.226 684.95 112.726 733.637 114.084C791.245 115.635 848.854 143.761 887.841 189.731C924.308 232.598 948.748 290.207 958.64 356.35C961.356 374.777 963.295 393.98 965.235 412.407C970.86 466.912 976.485 523.163 1004.03 570.298C1014.89 588.918 1029.24 606.182 1043.02 622.669C1057.37 639.932 1072.11 657.583 1082.78 676.786C1094.81 698.317 1097.72 724.503 1090.73 750.494C1084.33 774.546 1069.98 797.241 1051.16 812.952C1005.97 850.776 944.868 847.673 912.669 842.241C907.044 841.272 901.419 840.108 895.406 838.944C873.294 834.483 850.212 829.827 826.741 836.616C805.599 842.629 784.262 852.716 763.702 862.414C745.469 870.949 726.46 879.871 707.451 886.078C685.726 893.255 663.42 896.747 641.113 896.747ZM266.948 320.854C266.172 333.268 263.263 347.816 259.965 363.333C256.668 379.626 253.176 396.502 251.431 413.959C248.133 448.291 255.31 478.938 271.603 500.275C288.867 522.581 316.41 534.995 340.656 546.051L341.82 546.633C387.209 567.194 414.752 600.363 422.123 623.833C427.36 641.096 428.524 659.135 429.494 676.592C430.27 690.946 431.239 705.688 434.343 720.429C446.757 778.426 481.089 830.215 528.612 862.414C578.462 896.359 646.739 905.087 706.675 885.302C725.684 879.095 744.499 870.173 762.926 861.638C783.486 851.94 804.823 842.047 826.159 835.84C849.824 829.052 872.906 833.707 895.212 838.168C901.225 839.332 906.85 840.496 912.475 841.465C944.674 846.703 1005.39 850 1050.19 812.37C1085.5 782.887 1108.38 725.666 1081.42 677.562C1070.75 658.553 1056.01 640.902 1041.66 623.639C1027.89 606.958 1013.53 589.694 1002.48 571.073C974.739 523.939 969.114 467.494 963.489 412.795C961.549 394.368 959.61 375.165 956.894 356.738C947.002 290.789 922.562 233.374 886.29 190.701C847.496 144.925 790.275 116.799 732.861 115.441C684.562 114.278 632.579 136.39 597.083 173.632C584.281 187.016 569.539 200.4 548.009 208.158C533.267 213.395 516.004 217.081 499.322 220.572C485.745 223.482 471.585 226.391 459.171 230.077C429.494 239.193 409.709 252.771 401.95 261.5L401.756 261.694H401.562C400.98 261.694 400.592 261.694 400.011 261.694C349.773 261.694 302.444 282.642 266.948 320.854Z" fill="#B9B9B9"/>
<path d="M627.73 893.061C586.803 893.061 546.263 881.035 513.095 858.147C464.408 824.396 429.882 769.891 418.05 708.791C414.946 692.692 414.171 676.592 413.395 660.881C412.425 642.648 411.455 623.833 406.994 605.6C400.787 580.966 377.316 544.112 331.928 521.806C329.794 520.836 327.854 519.866 325.721 518.702C303.996 508.034 281.69 497.172 266.754 477.775C245.612 450.231 246.97 414.735 249.685 396.114C252.401 376.717 257.832 357.902 262.681 341.221C265.591 330.747 268.5 320.854 270.246 312.126V311.932L270.44 311.738C310.009 272.556 361.993 252.577 416.692 255.099C429.688 246.37 451.412 237.642 474.495 232.017C483.029 229.883 491.952 228.137 501.456 226.197C520.659 222.318 540.638 218.439 556.931 211.262C575.552 203.309 588.354 190.119 601.738 174.796C635.877 136.39 688.442 114.278 738.486 116.993C794.155 120.097 849.63 149.386 886.678 195.356C920.816 237.448 943.705 293.893 953.015 358.29C955.537 376.329 957.476 394.95 959.222 412.989C964.653 468.076 970.278 525.297 998.598 572.431C1009.07 589.695 1022.46 605.6 1035.45 621.117C1050.19 638.575 1065.52 656.614 1075.99 676.592C1087.82 698.899 1090.15 725.86 1082.59 752.434C1075.6 777.068 1060.09 800.344 1040.3 816.056C1004.8 844.375 952.045 854.074 895.794 842.823C889.975 841.66 883.962 840.302 877.755 838.75C855.449 833.319 832.367 827.888 808.509 833.901C786.784 839.526 765.254 849.806 744.305 859.893C728.4 867.651 711.912 875.41 695.425 881.229C673.7 889.376 650.618 893.061 627.73 893.061ZM271.022 312.514C269.276 321.242 266.367 330.941 263.457 341.415C258.802 358.096 253.371 376.911 250.655 396.114C247.94 414.735 246.776 449.843 267.53 477.193C282.272 496.396 304.578 507.258 326.109 517.732C328.242 518.702 330.376 519.866 332.316 520.836C377.898 543.336 401.563 580.384 407.77 605.212C412.425 623.445 413.395 642.26 414.171 660.493C414.946 676.204 415.722 692.304 418.826 708.209C430.658 769.115 465.184 823.427 513.482 856.983C564.884 892.673 634.325 901.596 694.843 880.453C711.33 874.634 727.818 866.682 743.723 859.117C764.672 849.03 786.202 838.556 808.121 833.125C831.979 827.112 855.255 832.543 877.755 837.974C883.962 839.526 889.781 840.884 895.794 842.048C951.851 853.298 1004.22 843.599 1039.53 815.474C1077.15 785.409 1100.63 725.472 1074.83 677.174C1064.35 657.39 1049.03 639.35 1034.29 621.893C1021.29 606.376 1007.71 590.47 997.24 573.013C968.727 525.685 963.102 468.464 957.67 413.183C955.925 395.144 953.985 376.523 951.463 358.484C942.153 294.28 919.265 238.03 885.32 196.132C848.272 150.356 793.185 121.261 737.71 118.157C687.86 115.441 635.683 137.36 601.738 175.572C588.16 190.895 575.358 204.085 556.543 212.232C540.25 219.215 520.271 223.288 500.875 227.167C491.37 229.107 482.447 230.853 474.107 232.986C451.025 238.805 429.494 247.34 416.498 256.069H416.304H416.11C361.993 253.547 310.397 273.526 271.022 312.514Z" fill="#B9B9B9"/>
<path d="M614.927 889.182C606.005 889.182 597.082 888.6 587.966 887.437C555.185 883.169 524.15 871.143 498.352 852.716C448.89 817.414 413.976 760.581 402.92 696.572C399.816 679.114 399.04 661.657 398.458 644.588C397.683 625.579 396.713 605.988 392.833 586.785C386.626 557.69 364.902 518.508 322.423 495.814C319.319 494.068 315.828 492.323 312.724 490.577C294.297 481.073 275.482 471.18 262.68 454.693C248.133 435.49 243.09 407.752 248.909 378.269C253.37 355.963 262.099 334.432 269.082 317.363C271.021 312.514 272.961 307.859 274.513 303.591L274.707 303.397C317.186 264.604 374.212 245.013 431.239 249.862C445.981 244.625 466.735 239.388 489.236 235.12C493.309 234.345 497.382 233.763 501.65 232.987C522.792 229.301 546.844 225.228 565.077 215.918C581.177 207.577 592.039 194.387 603.677 180.615L606.199 177.512C638.398 138.524 692.321 116.218 743.335 120.485C770.102 122.813 797.452 131.541 822.086 145.701C846.332 159.667 868.25 178.87 885.513 201.37C917.324 242.685 938.661 297.578 947.389 360.424C949.911 378.075 951.463 396.308 953.208 413.959C958.446 469.822 963.877 527.625 993.36 575.147C1003.45 591.247 1016.05 605.988 1028.47 620.342C1043.6 637.993 1059.31 656.226 1069.78 676.787C1081.42 699.869 1083.36 727.413 1075.02 754.762C1067.26 780.172 1050.97 803.836 1030.21 819.742C992.196 848.643 937.303 857.565 879.694 843.988C873.487 842.63 867.086 840.69 860.879 839.138C838.379 832.931 815.103 826.53 791.245 831.768C769.132 836.617 747.602 847.285 726.847 857.759C713.075 864.742 698.722 871.725 684.368 877.156C662.062 885.109 638.592 889.182 614.927 889.182ZM275.094 303.979C273.543 308.247 271.603 312.708 269.663 317.557C262.293 335.596 253.952 356.157 249.491 378.463C243.866 407.558 248.715 435.102 263.262 454.111C275.87 470.598 294.685 480.297 312.918 489.801C316.216 491.547 319.513 493.293 322.811 495.038C365.484 518.12 387.402 557.496 393.609 586.591C397.683 605.6 398.458 625.385 399.428 644.394C400.204 661.463 400.98 678.92 403.89 696.378C414.946 760.193 449.666 817.026 499.128 852.134C552.082 889.764 622.88 899.075 683.786 876.186C698.14 870.755 712.299 863.772 726.265 856.79C747.214 846.315 768.744 835.647 790.857 830.798C814.909 825.561 838.379 831.962 860.879 838.169C867.086 839.914 873.487 841.66 879.5 843.018C936.915 856.402 991.614 847.673 1029.44 818.772C1069.01 788.707 1094.42 727.413 1068.81 676.787C1058.53 656.42 1042.82 638.187 1027.69 620.536C1015.28 606.182 1002.67 591.247 992.584 575.147C962.907 527.625 957.476 469.628 952.239 413.571C950.687 395.92 948.941 377.687 946.419 360.036C937.691 297.384 916.354 242.491 884.738 201.37C849.435 155.593 796.482 125.334 742.947 120.873C692.321 116.606 638.786 138.718 606.587 177.512L604.065 180.615C592.427 194.581 581.565 207.771 565.271 216.305C547.038 225.616 522.792 229.883 501.65 233.569C497.382 234.345 493.309 234.926 489.236 235.702C466.541 239.97 445.981 245.013 431.239 250.444C374.212 245.789 317.38 265.379 275.094 303.979Z" fill="#B9B9B9"/>
<path d="M602.125 885.497C560.228 885.497 517.943 872.501 483.61 847.479C433.179 810.819 398.264 751.464 387.79 684.545C384.88 665.73 384.105 646.721 383.523 628.294C382.747 608.51 381.971 588.143 378.479 568.164C371.109 526.461 346.475 489.801 312.724 469.822C308.845 467.494 304.577 465.167 300.504 463.033C284.987 454.499 269.081 445.77 258.413 431.61C244.835 413.765 240.956 387.191 247.939 360.618C254.922 333.656 266.172 309.798 278.78 295.056C318.155 249.28 382.747 245.012 445.593 244.431C455.873 244.431 468.093 242.685 482.059 240.939C489.042 239.969 496.412 238.999 503.977 238.224C527.447 235.702 554.215 231.823 573.224 220.185C586.414 212.038 595.142 200.4 604.453 187.792C606.392 185.076 608.526 182.361 610.66 179.645C625.789 159.86 647.126 143.955 671.76 134.062C696.2 124.17 722.58 120.485 747.796 123.588C774.175 126.692 799.779 135.808 824.025 150.938C847.107 165.291 867.862 184.688 884.155 207.189C914.027 248.116 933.229 300.294 941.57 362.557C943.898 379.821 945.45 397.472 947.001 414.735C952.044 471.374 957.282 529.952 987.735 577.475C997.239 592.41 1009.46 606.182 1021.1 619.566C1036.61 637.217 1052.71 655.644 1062.8 676.786C1074.24 700.645 1075.6 729.158 1066.68 756.896C1058.15 783.081 1040.88 807.327 1019.16 823.039C998.209 838.362 972.993 847.867 944.286 851.164C918.294 854.268 889.974 851.94 862.819 844.763C856.418 843.017 849.823 841.078 843.228 838.944C820.534 831.961 797.064 824.59 773.011 829.052C750.899 833.125 729.756 844.181 709.196 854.656C697.17 860.863 684.756 867.264 672.342 872.307C650.035 881.229 626.177 885.497 602.125 885.497ZM730.338 123.006C683.786 123.006 638.397 144.343 611.048 180.033C608.914 182.749 606.974 185.464 604.841 188.18C595.53 200.788 586.802 212.62 573.418 220.766C554.215 232.599 527.447 236.284 503.783 238.999C496.024 239.775 488.848 240.745 481.865 241.715C467.899 243.655 455.679 245.206 445.399 245.206C382.747 245.788 318.155 250.056 278.974 295.638C266.56 310.186 255.309 334.044 248.327 360.812C241.538 387.191 245.417 413.377 258.801 431.222C269.469 445.188 285.375 453.917 300.698 462.451C304.771 464.779 309.039 466.912 312.918 469.24C331.151 480.102 346.475 495.038 358.113 513.853C368.393 530.146 375.57 548.961 378.867 567.97C382.359 587.949 383.135 608.316 383.911 628.1C384.492 646.527 385.268 665.536 388.178 684.351C398.652 751.076 433.566 810.237 483.804 846.897C537.534 886.078 611.436 895.777 671.76 871.725C684.174 866.682 696.588 860.281 708.614 854.074C729.175 843.405 750.317 832.349 772.624 828.276C796.87 823.815 820.34 831.185 843.228 838.168C849.629 840.108 856.224 842.242 862.625 843.987C921.397 859.699 978.23 851.746 1018.58 822.263C1059.89 792.198 1087.43 729.352 1062.02 676.786C1051.94 655.838 1035.84 637.411 1020.32 619.76C1008.68 606.376 996.463 592.604 986.959 577.475C956.312 529.758 951.075 470.986 946.031 414.347C944.48 397.084 942.928 379.239 940.6 362.169C932.454 300.1 913.057 247.922 883.38 206.995C849.823 160.83 799.003 129.795 747.602 123.782C741.976 123.2 736.157 123.006 730.338 123.006Z" fill="#B9B9B9"/>
<path d="M588.935 882.005C546.844 882.005 503.783 868.428 468.675 842.242C417.467 804.224 382.359 742.348 372.466 672.519C369.557 652.347 368.975 631.786 368.393 611.807C367.811 591.247 367.229 570.104 364.126 549.543C360.052 522.388 346.668 472.538 303.026 444.025C298.564 441.115 293.909 438.399 289.254 435.684C276.452 428.119 263.068 420.554 254.145 408.528C241.731 391.653 238.822 366.631 246.969 342.967C254.145 321.63 267.335 301.264 282.853 286.716C304.771 266.543 332.509 252.384 365.677 244.431C394.191 237.642 426.002 235.896 460.14 239C481.865 240.939 500.486 241.715 518.913 241.133C546.456 240.358 567.599 234.732 581.758 224.452C592.814 216.499 599.797 205.443 607.362 193.611C609.884 189.732 612.405 185.658 615.315 181.779C644.41 140.658 699.691 118.351 752.839 126.304C778.442 130.183 803.27 140.076 826.353 155.593C848.077 170.335 867.862 189.926 883.185 212.232C910.535 251.996 928.38 303.203 936.139 363.916C938.272 380.597 939.63 398.054 941.182 414.929C946.031 472.344 951.074 531.698 982.691 579.415C992.002 593.38 1003.45 606.182 1014.5 618.596C1030.41 636.247 1046.7 654.674 1056.59 676.205C1067.84 700.839 1068.62 730.128 1058.92 758.641C1049.61 785.991 1031.77 810.043 1008.68 826.143C986.571 841.66 960.191 850.97 930.514 854.074C903.358 856.789 874.263 853.88 846.331 845.539C839.542 843.6 832.754 841.272 825.965 838.944C803.076 831.186 779.412 823.039 755.166 826.53C733.054 829.828 712.493 840.884 692.708 851.746C682.234 857.371 671.566 863.19 660.703 867.846C638.009 877.35 613.569 882.005 588.935 882.005ZM428.911 238.03C368.781 238.03 317.767 254.905 283.241 286.91C267.723 301.264 254.727 321.824 247.551 342.967C239.598 366.437 242.313 391.459 254.727 407.946C263.65 419.972 276.84 427.537 289.642 435.102C294.297 437.818 298.952 440.533 303.413 443.443C320.677 454.693 335.03 470.598 345.893 490.771C355.203 508.034 361.604 528.207 364.901 549.349C368.005 570.104 368.587 591.247 369.169 611.807C369.751 631.786 370.333 652.347 373.242 672.326C383.134 741.96 418.049 803.642 469.257 841.66C524.925 882.975 599.991 892.868 660.51 867.07C671.372 862.415 682.04 856.596 692.514 850.971C712.493 840.108 733.054 829.052 755.166 825.755C779.606 822.263 803.27 830.216 826.159 838.169C832.754 840.496 839.736 842.824 846.331 844.763C905.686 862.415 966.204 855.238 1008.3 825.561C1057.37 791.228 1078.32 725.667 1055.82 676.593C1045.92 655.062 1029.63 636.635 1013.92 618.984C1002.86 606.57 991.42 593.768 982.109 579.609C950.492 531.698 945.449 472.344 940.6 414.735C939.242 397.86 937.691 380.597 935.557 363.916C927.798 303.203 910.147 252.19 882.797 212.426C850.405 165.292 803.076 134.063 752.839 126.692C699.691 118.739 644.798 141.046 615.897 181.973C613.181 185.852 610.466 189.926 607.944 193.805C600.379 205.443 593.202 216.693 582.146 224.646C567.793 235.12 546.65 240.745 518.913 241.521C500.486 242.103 481.671 241.327 460.14 239.388C449.278 238.612 438.997 238.03 428.911 238.03Z" fill="#B9B9B9"/>
<path d="M576.522 878.319C567.212 878.319 557.901 877.738 548.591 876.38C514.258 871.337 481.478 857.759 453.934 837.004C427.361 816.831 405.248 790.452 388.373 758.835C372.468 729.158 361.799 695.019 357.338 660.493C354.622 638.962 354.04 616.656 353.653 595.319C353.071 574.177 352.683 552.258 349.967 530.922C345.506 494.844 331.928 446.158 293.522 418.226C288.867 414.929 284.018 411.825 279.169 408.916C268.5 402.321 257.638 395.726 250.073 385.639C238.629 369.928 237.077 346.264 246.194 325.315C253.565 308.828 266.949 293.31 287.315 278.375C313.307 259.172 344.148 244.818 376.541 237.253C408.934 229.495 442.878 228.331 474.689 233.762C481.672 234.926 488.849 236.478 495.637 238.029C508.051 240.745 520.853 243.46 533.849 244.43C557.126 245.982 577.104 240.551 590.1 228.913C599.411 220.766 605.424 209.71 611.243 199.042C613.958 194.192 616.674 188.955 619.777 184.3C633.355 163.157 654.304 146.67 680.102 136.972C704.542 127.661 732.085 124.946 757.689 129.601C805.987 138.33 851.376 170.722 882.217 218.245C907.627 257.426 923.532 305.918 930.709 366.243C932.649 382.536 934.006 399.411 935.364 415.898C940.019 474.089 944.869 534.219 977.455 582.13C986.378 595.125 997.24 607.151 1007.71 618.596C1023.81 636.247 1040.3 654.48 1050 676.592C1060.86 702.002 1061.25 732.067 1050.97 761.162C1040.88 789.288 1022.26 813.728 998.21 829.827C953.403 860.086 890.363 866.293 829.651 846.509C822.668 844.181 815.492 841.659 808.509 838.944C785.426 830.409 761.762 821.487 737.322 824.202C715.404 826.53 695.813 837.78 676.804 848.642C667.882 853.685 658.571 859.117 649.067 863.384C626.76 873.276 602.126 878.319 576.522 878.319ZM434.537 230.659C382.166 230.659 329.212 247.534 287.315 278.569C267.143 293.504 253.759 308.828 246.388 325.315C237.271 346.07 238.823 369.54 250.267 385.057C257.638 395.144 268.5 401.739 279.169 408.334C284.018 411.243 289.061 414.347 293.716 417.644C332.316 445.77 345.894 494.65 350.355 530.728C353.071 552.064 353.459 573.983 354.04 595.319C354.622 616.656 355.01 638.962 357.726 660.493C367.036 733.037 402.145 797.241 454.128 836.616C510.767 879.483 589.13 889.958 648.679 862.608C658.183 858.341 667.3 852.91 676.416 847.866C695.425 837.004 715.21 825.754 737.128 823.426C761.568 820.905 785.426 829.633 808.509 838.362C815.492 840.884 822.474 843.599 829.457 845.927C889.975 865.712 952.821 859.505 997.434 829.245C1048.45 794.913 1071.14 727.8 1049.03 676.592C1039.53 654.48 1023.04 636.247 1006.94 618.79C996.464 607.151 985.408 595.319 976.485 582.13C943.705 534.025 938.856 473.895 934.2 415.511C932.843 399.217 931.485 382.148 929.545 365.855C922.368 305.53 906.463 257.232 881.247 218.051C850.6 170.722 805.405 138.33 757.107 129.601C703.184 119.709 646.739 142.209 619.777 184.106C616.674 188.955 613.958 193.998 611.243 198.848C605.424 209.516 599.217 220.766 589.906 228.913C576.716 240.551 556.544 246.176 533.267 244.43C520.271 243.46 507.47 240.745 495.056 238.029C488.267 236.478 481.09 234.926 474.107 233.762C461.305 231.628 447.921 230.659 434.537 230.659Z" fill="#B9B9B9"/>
</svg>
